seq,first,last,email,gender,state,city,street,province,zip
1,Stella,Hodges,he@solcorel.sh,Male,WV,Paazereg,Apec Circle,NB,53492
2,Martin,Houston,bine@jujfiwig.mv,Male,FL,Meuhezos,Kera Avenue,AB,68050
3,Carlos,Frank,rowgom@tigu.fm,Female,CT,Epilosve,Liizi Point,NB,88279
4,Adele,Sparks,pi@bapna.ec,Male,SD,Rovabwuc,Momih Manor,NS,57828
5,Hallie,Fox,amwa@wabnontoz.cm,Male,DC,Gehajgi,Cuebi Highway,NT,89232
6,Francisco,Benson,se@dubega.mu,Male,DE,Kipkuku,Juven Circle,NU,54825
7,Hester,Richards,pumev@ke.td,Male,WI,Bacnuvo,Oroat View,QC,16277
8,Oscar,Figueroa,wetanhe@landahuwo.wf,Male,TX,Leisauko,Zulnew Center,QC,16720
9,Ernest,Park,fedauj@demi.to,Male,OR,Megitfi,Boluco Trail,BC,75881
10,Justin,Castro,jiv@winmar.tk,Female,MO,Hisatbo,Pujdez Point,SK,01281
11,Eugenia,Walsh,usuim@ovu.sh,Male,NY,Umemoka,Sihemu Avenue,QC,10597
12,Cordelia,Robbins,pisir@gehilsut.tt,Female,GA,Riozumu,Tacasa Way,NT,47894
13,Donald,Collins,gagowi@vokzag.ga,Female,IN,Hagbutor,Goco Square,NS,44679
14,Sylvia,Flowers,tilgiru@sahif.pk,Female,IN,Vopiwewa,Ibiice Ridge,YT,90298
15,Duane,Mann,teose@li.cu,Male,CO,Liseade,Kukon Avenue,NT,34362
16,Nina,Cohen,okoiwba@viw.co,Female,MT,Calpovo,Akumef Loop,SK,58552
17,Bruce,Malone,feetu@jintij.ma,Female,UT,Beskuem,Dacoha Turnpike,AB,39563
18,Willie,Padilla,vabriab@ahjusdu.bd,Female,SC,Safavet,Temkud Path,YT,39914
19,Teresa,Blake,ewozij@wuepuki.mw,Male,HI,Zefasep,Necit Parkway,PE,29434
20,Ryan,Stephens,jafpi@no.gd,Male,WI,Ohosotwam,Zimuda Pike,SK,84848
21,Cecelia,Conner,ow@tuzkoz.ga,Male,NE,Siginwa,Gujlot River,QC,04197
22,Christine,Berry,bowkiho@pozzefol.fk,Female,VA,Gegbudhu,Pibcin Loop,ON,77575
23,Glenn,Buchanan,esad@lebaf.eh,Female,AL,Vilelev,Ubire Loop,NT,14083
24,Jason,Harvey,gareano@migeze.mr,Male,SD,Uliorifib,Boced Turnpike,NU,66364
25,Elijah,Andrews,haf@zocbejum.co,Female,MD,Jaasje,Guce Grove,NB,80106
26,Hunter,Wong,ofoki@gosokfa.ck,Male,SD,Bejadiab,Pojur Heights,AB,11335
27,Eunice,Leonard,ribizekaw@inu.cu,Female,IA,Uwnotjad,Ukesu Grove,MB,29130
28,Michael,Obrien,zeborcuf@uho.bd,Male,OK,Mepicko,Ocsub Trail,AB,56184
29,Etta,Harper,togifu@usikic.fj,Male,WI,Mozlurevu,Kebke Street,MB,30186
30,Marie,Stanley,ot@sibik.ec,Male,CA,Femagehe,Izizi Extension,AB,03061
31,Irene,Allison,uriirwu@kutso.hu,Female,IL,Noudgi,Hedhaj Mill,QC,95596
32,Alexander,Abbott,dic@huz.li,Male,MO,Hujusuk,Mociw Pass,QC,27988
33,Sam,Goodwin,pelwo@mitfap.to,Female,VT,Savuda,Ifege Street,YT,10792
34,Isabella,Jones,ugden@cuzgis.rw,Female,HI,Tazhodsi,Popeg Square,NU,48608
35,Melvin,Reed,vakbopka@jujuk.ba,Female,MA,Bamiwo,Jiaw View,NL,46368
36,Olga,Barber,bujucam@rolin.cn,Female,MO,Opfiob,Liogu Drive,MB,82175
37,Mamie,Rodriquez,no@wos.cm,Male,SD,Kobdeuz,Mojbu Loop,NU,41532
38,Oscar,Dixon,fuwesvel@damhubu.gp,Female,MI,Misiwap,Wirep Ridge,NS,52630
39,Eliza,Potter,eve@dos.ua,Female,LA,Giguczew,Tiviz Place,NT,15155
40,Estelle,Murray,lam@pamtidze.bi,Male,FL,Vatefka,Ujuud Path,NB,75875
41,Bobby,Floyd,pefuso@azuga.tk,Female,HI,Cadikhep,Jeci Glen,NT,94921
42,Max,Alvarez,embamep@mekir.se,Male,NV,Oranumiw,Vetnaj Parkway,NU,88826
43,Tillie,Greene,fawake@juconme.vc,Female,OR,Moluka,Sampuf Pike,NB,70197
44,Isaiah,Patton,duna@fiurmo.cc,Female,KS,Duderoz,Rohu Drive,MB,08384
45,Willie,Gonzalez,zeodofom@lewuhbi.ge,Female,NJ,Sazsofpu,Colis Parkway,NS,85114
46,Travis,Frazier,jasrol@vo.km,Male,PA,Butgukus,Ejeub Square,AB,83465
47,Ralph,Fuller,wiomu@jamti.bn,Male,AZ,Azvuwpo,Geudi Lane,NL,43321
48,Lucy,Davidson,cip@eze.cf,Female,OR,Nitazru,Cono Path,AB,00288
49,Sallie,Graves,ucu@me.bg,Female,AL,Vunohifo,Duoj Ridge,NS,08318
50,Martha,Ellis,vet@zah.mz,Female,MN,Gowuhwe,Tedeh Drive,YT,35250
51,Ida,Fleming,emuwom@ja.lb,Male,IA,Vozobkur,Fukro Manor,NB,23450
52,Ella,Ray,den@zoad.gov,Male,NC,Kijuega,Haeho Point,YT,90374
53,Micheal,Turner,tadop@kikse.ai,Female,AK,Geriguh,Mowzi View,ON,68374
54,Billy,Cannon,tutop@aj.mp,Female,NJ,Nulurzo,Ubkek Road,ON,16600
55,Ellen,Frazier,haivi@nugcuw.qa,Male,MT,Kapalaje,Nino Highway,AB,15316
56,Kathryn,Kim,uwinuv@api.lr,Female,ME,Gubijno,Hafuve Street,ON,62869
57,Olivia,Saunders,hitan@ewvij.il,Male,WA,Jopripfij,Neuj Circle,MB,71861
58,Dean,Harrington,likneipu@ujecji.mg,Male,MI,Ligjelwo,Basu Drive,AB,43507
59,Barbara,Evans,jahetju@pi.ly,Male,AL,Tirivku,Pikoz Street,BC,54704
60,Jon,Schmidt,geesvip@elifibuwu.om,Female,HI,Oswosoge,Nitet Pike,MB,27093
61,Julia,Nash,upi@geb.cf,Female,IL,Ozwauk,Ajten Square,NB,86704
62,Mina,Terry,howewal@wa.net,Female,WV,Noleez,Cewmi Loop,QC,40976
63,Clayton,Keller,wukona@dutok.er,Female,OH,Rutvenuni,Zofma Turnpike,NS,47675
64,Cole,Hampton,kehezpuh@onjogav.ca,Female,NV,Ijruvak,Hezum Terrace,NU,67864
65,Brett,Clark,fabelu@azguje.uz,Male,MD,Obewazem,Kikte Heights,NL,14970
66,Isaac,Moore,mu@zat.mo,Male,SD,Dolucas,Sufudi Street,NT,97847
67,Flora,Logan,lu@iksi.sd,Female,MS,Ogaluili,Heeh Key,PE,29571
68,Duane,Bass,kirhez@jah.mu,Male,VT,Mihorim,Bakaf Highway,NB,91968
69,Amy,May,nudacju@giwuh.tl,Male,MI,Wucnico,Pijafu Mill,NS,25744
70,Lenora,McGuire,mi@poij.bq,Female,OR,Jogapawuz,Zinte Center,NB,35903
71,Arthur,Stone,mihelhil@jo.gi,Male,CO,Dinroag,Enef Lane,ON,96481
72,Benjamin,Shelton,ewru@ragafo.se,Male,CT,Ogaefamu,Acnu Boulevard,NB,18706
73,Catherine,Henderson,gosadi@jajzudbe.vi,Male,NY,Lijpatin,Liha Key,AB,30229
74,Erik,McDonald,riel@erumuvhag.pm,Male,VA,Fevolsi,Kibpab Road,NU,37203
75,Melvin,Hines,guhdupi@ob.je,Female,HI,Igminso,Merbek Street,NL,31092
76,Todd,Lyons,cufrib@pelag.ss,Female,MA,Temewe,Lode Boulevard,ON,81099
77,Ralph,Washington,inwukdop@soranaoni.se,Female,MT,Gemesu,Kemzaf Heights,AB,28960
78,Austin,Romero,rarropbo@azelofag.edu,Male,AR,Gegohjut,Sugjas Park,PE,38049
79,Maria,Dennis,zomor@cizonil.us,Male,RI,Irelajum,Mubbaf Lane,NS,94804
80,Ruth,Foster,ju@oluwiwawe.tv,Female,SC,Ujunaze,Muveb Manor,BC,20845
81,Teresa,Day,mufif@pu.er,Male,AL,Gecagi,Fawem Street,PE,37723
82,Willie,Oliver,miribigeg@pothuwmu.an,Female,WA,Bogowe,Buzfe Pass,AB,87746
83,Arthur,Thornton,kel@zowocen.ye,Female,KY,Secwozoh,Bilegu Glen,SK,83414
84,Connor,Ramirez,advullu@vij.com,Female,NY,Jesfoghom,Kobme Manor,AB,57775
85,Alex,Tyler,uffuke@fa.dm,Male,AK,Zonbete,Bonu Parkway,MB,48132
86,Isaac,Hart,na@nepwi.md,Female,NC,Bijdidwu,Cilva Pass,NS,67888
87,Wayne,Pena,ic@tezebako.ug,Female,NJ,Gejvigef,Ogbo Highway,NU,89078
88,Sophie,Bridges,sazum@ma.mp,Male,WA,Kokowhab,Rello Key,BC,57487
89,Nellie,Lane,ciagi@vufnoav.ml,Male,OK,Rimelakos,Cewop Heights,PE,74539
90,Daniel,Kelly,de@ofilapo.tp,Female,KS,Adgihevu,Lenal River,AB,95303
91,Hannah,Massey,ib@uf.be,Male,NE,Lidceha,Kehseb Turnpike,NU,82385
92,Ella,Guerrero,ebjoz@noh.to,Female,MA,Likireci,Dotap Center,MB,02404
93,Christian,Anderson,dutun@gavav.dk,Female,VT,Naitval,Relpas Grove,NU,35240
94,Hallie,Schultz,vonnihig@inzac.sm,Female,AK,Oribefra,Tudnum Trail,YT,30791
95,Milton,Bradley,duwedta@janbac.st,Male,WI,Ekiwenwe,Aligok Extension,PE,62432
96,Joseph,Reed,teofakah@zuj.ae,Female,AZ,Papciega,Cegace Manor,NU,17212
97,Janie,Brown,vel@taciuh.na,Male,MT,Afsuvsa,Ovicuh Square,SK,20687
98,Clayton,Lowe,man@jer.hk,Male,AZ,Bidugom,Vosdol Drive,NU,05381
99,Jeffrey,Riley,tata@dojah.re,Male,MA,Wozatlaw,Sufda Pike,SK,29947
100,Wayne,Obrien,ezezuj@zoninces.ke,Female,VA,Seruttoh,Dubdo Point,BC,66705
101,Lenora,Becker,vu@nor.mc,Female,MN,Nalzuwbip,Daaka View,MB,98326
102,Anne,Moss,cojew@dizoticod.mt,Female,WI,Cevuab,Nokese Way,ON,32246
103,Edwin,Houston,niv@sulog.bb,Female,MS,Hullazmo,Ribvo River,ON,94792
104,Elnora,Morris,jona@pewsalko.lr,Female,IA,Juecju,Kamzed Plaza,NS,14657
105,Addie,Alvarado,itrafo@kewlerpew.tp,Male,MI,Wacbitu,Gasoz Point,QC,62613
106,Lewis,Gibbs,ke@ov.ir,Male,NJ,Sasudu,Oveku River,NT,98862
107,Bobby,Atkins,ogeregis@vu.hr,Female,WA,Amifawuf,Monu Place,SK,97182
108,Rebecca,Tucker,otufip@av.sd,Male,CA,Irkoktah,Foma Ridge,SK,48832
109,Micheal,Brown,faza@mime.sh,Female,VA,Cezuvdo,Sajo Drive,BC,10326
110,Henry,Zimmerman,burliiz@rulu.mr,Female,SC,Nikimaj,Busir Trail,AB,78036
111,Philip,Richards,jafnidhe@cajje.bi,Male,SC,Kumzacov,Nudko Manor,BC,77713
112,Gary,Carter,su@atjumrul.pt,Male,MA,Sifogge,Wizugo Pike,NT,54183
113,Gabriel,Robinson,osiwuvfic@adze.bj,Male,OK,Dohveitu,Upukuk Turnpike,YT,49598
114,Adrian,Watts,kazlej@haldubo.nl,Female,RI,Dachusgib,Zohar Highway,NL,56208
115,Sophia,Foster,ri@kinjo.mg,Male,MO,Jurmefima,Tati Mill,YT,72302
116,Bernard,Frank,tud@femumvab.ee,Female,ND,Imtatzij,Cipod Extension,BC,77512
117,Fanny,Obrien,tanoziija@kupdijce.mx,Male,UT,Paumari,Novuc Boulevard,NU,43502
118,Rodney,Hogan,pu@nuwdi.hu,Male,VT,Abdifjo,Owizes Street,MB,08695
119,Katherine,Mason,suja@cu.mr,Male,NM,Fodfuji,Zokuj River,NU,43045
120,Pearl,Hernandez,kimhogwu@vi.bg,Male,AL,Ozikete,Zabze Square,BC,11002
121,Ethel,Thompson,neskih@hipoag.re,Male,WI,Kupokeh,Iwegi Path,NB,90805
122,Flora,Jackson,kizooro@je.gov,Male,OK,Cokucdu,Moge Point,MB,67758
123,Minerva,Jordan,putkip@eto.na,Female,MA,Isahohge,Doje Junction,SK,34581
124,Rosie,Evans,worapu@umu.fk,Male,ME,Beukoesa,Kuze Junction,NS,56319
125,Scott,May,juggupku@rarpo.td,Male,WI,Dopuwipew,Casoz Pass,YT,14726
126,Sophia,Cox,vi@ijcab.la,Female,UT,Dirguzde,Bohwas Road,NU,34624
127,Francis,Banks,dawjighum@rij.be,Male,NY,Replodvev,Iwipi Square,ON,30775
128,Mattie,Allison,jewla@gikku.bb,Male,AZ,Wushijaf,Voctuf Road,NL,02814
129,Sarah,Jacobs,dodi@morowuv.pe,Male,PA,Paraszu,Diciv Circle,MB,33963
130,Grace,Turner,vobalaw@niezu.sx,Male,NC,Cozuhar,Mopzum Lane,NT,88800
131,Russell,Cook,tico@im.sy,Male,MO,Joloiju,Dafiz Parkway,YT,33136
132,Catherine,Sharp,ol@cokgaf.vc,Male,MO,Fivagev,Jidob Parkway,PE,73132
133,Emily,Holmes,cufigwe@ulo.mc,Male,IL,Gomlogima,Ipute Court,PE,47214
134,Leonard,Fuller,ri@ja.tj,Female,ID,Lilujwo,Kefe Street,NL,75182
135,Polly,Rowe,famupuf@sa.ua,Female,LA,Cohawig,Vapid Street,SK,66151
136,Christopher,Hart,ale@roepgih.kh,Male,NV,Iraozugug,Divuh Terrace,QC,73944
137,Troy,Lamb,ma@dis.cn,Female,LA,Ibmofsu,Kokka Turnpike,AB,16405
138,Maud,Garner,ubo@wimaluna.lb,Female,WY,Vupiizu,Raza Lane,PE,12426
139,Elnora,McBride,iguvef@kolez.np,Male,MN,Eruazniv,Fimob Park,MB,35657
140,Cody,Horton,savcifsa@wet.gi,Female,WV,Hizaol,Bijufu Highway,NS,88496
141,Isabelle,Gonzalez,roj@guwbam.ao,Male,NY,Lovajfa,Zupmu Path,NS,96872
142,Laura,Woods,vi@tof.gn,Female,CO,Ribaka,Ahipuj Ridge,NS,80442
143,Eula,Ortega,sajduc@bindinra.mz,Female,KS,Wernehnu,Fuha Place,AB,65378
144,Curtis,Bradley,ruruf@na.va,Male,GA,Sinvajur,Wafa Lane,MB,15523
145,Mamie,Bowers,omelocol@fu.gd,Male,AK,Jegujvo,Polti Park,NB,86610
146,Barbara,Greer,lewar@bopoke.tt,Female,MT,Pejrozlo,Ufoba Place,NB,07239
147,Sean,Oliver,weazliv@wah.af,Female,AZ,Tougolo,Jadah Extension,PE,08350
148,Maud,Green,roc@comotufa.pa,Male,MA,Kuwmeke,Tijtol Road,SK,83575
149,Dollie,Todd,mop@vuhfif.sg,Male,FL,Geulsu,Igok Boulevard,AB,78386
150,Dylan,Burton,udubajap@ze.cc,Female,ME,Nemupe,Urfim Loop,NS,44542
151,Ralph,Patterson,lufu@holeb.ar,Female,NM,Fapibuj,Wehvo Plaza,SK,82330
152,Ryan,Herrera,sasu@abreve.mx,Male,MO,Owuvifkof,Mashan Boulevard,NU,72186
153,Alex,Wilkins,ribowo@hem.tj,Male,MN,Ufmiiz,Powna Road,NB,19802
154,Brent,Holmes,hulwa@wor.gi,Female,WI,Huadazu,Cisbi Loop,AB,01968
155,Don,Cook,pehibive@kadoga.bg,Female,OH,Egeboce,Lugot Lane,NL,17231
156,Sophia,Tucker,go@anpob.edu,Female,UT,Mikerehe,Pise Pike,NS,53198
157,Herbert,Conner,dow@cop.ee,Female,AZ,Cevheber,Bibeki Pike,PE,37733
158,Jean,Simmons,ivacez@obami.fo,Female,KY,Ropicaj,Jedoje Ridge,YT,10803
159,Rosa,Patterson,lumnodo@atimu.bh,Male,PA,Ilmulfeh,Tavcen Avenue,BC,83956
160,Landon,Gordon,jicdedup@aze.bz,Male,UT,Ofasuva,Wojisi Ridge,NL,04980
161,Walter,Hanson,careru@esesineke.ba,Female,LA,Numoko,Omto Junction,NL,71216
162,Darrell,Gordon,fa@mahuaku.tc,Female,TX,Rofotcu,Ogwe Highway,NL,33484
163,Jeanette,Johnston,domeglat@durabuz.pk,Female,MO,Ezucaos,Esedud Grove,SK,53676
164,Randall,Nguyen,agadamba@kam.hn,Female,RI,Wutgipsij,Cafi Way,SK,77324
165,Mabel,Foster,nekamaw@pojo.aw,Female,NH,Dehdatag,Ehugop Ridge,QC,48121
166,Alexander,Graham,eju@suj.pk,Female,CT,Cunkopkob,Vara Parkway,YT,01724
167,Lenora,Joseph,pa@jeussok.au,Male,MO,Gippaka,Jikis Pass,MB,50662
168,Sean,Medina,enecap@zoke.lr,Male,LA,Ozdavef,Dato Center,NS,44986
169,Lily,Robbins,pogre@vusgu.gq,Female,UT,Cutugdi,Jakrib Lane,YT,16126
170,Warren,Green,samlowpi@wopoes.cy,Male,WI,Kulimis,Icovor Street,NB,85525
171,Barbara,Bradley,mibafu@gelve.bg,Female,UT,Etoifol,Cesfam River,NL,79510
172,Nancy,Diaz,catpo@numvawi.sj,Male,ME,Ibzanwok,Inpiw Trail,QC,07058
173,Maude,Hale,kus@zaheni.cr,Male,CT,Juefupac,Saocu Key,MB,96761
174,Emily,Jennings,rova@mipuzpu.ma,Male,ND,Kewkaav,Ucweg Park,ON,53026
175,Robert,Woods,duffil@burozpid.nu,Male,MS,Jirdicboj,Taome Manor,NL,82294
176,Adelaide,Gill,ditiev@ki.no,Male,NJ,Hawvakeb,Pooh Junction,NB,18447
177,Blanche,Miller,maciwu@wucgalraj.uk,Male,LA,Zaveji,Puju Manor,ON,85293
178,Jon,Montgomery,faptiz@li.ai,Female,NY,Kuhibi,Sitwum Grove,NL,04604
179,Clarence,Cole,id@du.com,Male,SD,Civpohej,Cugef Lane,ON,85859
180,Travis,Young,eltosiv@zacal.fk,Female,CT,Vaishuz,Beka Plaza,PE,12495
181,Hannah,Thornton,buc@keljoz.gf,Female,ND,Zudcecuv,Biwapu Pass,NT,93962
182,Eula,Terry,tevihohez@vucagla.tr,Male,RI,Dufgipsow,Jeje Path,NU,27096
183,Ricardo,Harvey,vagvesvib@zodin.lu,Male,NH,Gasrarkit,Gikkid Loop,NT,40363
184,Adeline,McKenzie,ehvi@nugfo.mr,Female,UT,Kizwotizi,Bowbaz Circle,SK,51529
185,Chester,Hunter,sug@fanerteg.bw,Female,KY,Ikusagi,Rolba Terrace,PE,82299
186,Caleb,Singleton,voselac@bujmete.my,Female,TX,Zohelhe,Igieve Trail,PE,85701
187,Inez,Ferguson,fi@selo.tg,Male,NV,Tiwsibror,Ocabef Plaza,NL,33683
188,Cynthia,Guzman,ves@nip.to,Female,ND,Rohbonmoj,Alanu Loop,NT,18773
189,Scott,Carr,onaeb@gungu.nf,Female,IL,Pizejinog,Nerud Highway,NT,71404
190,Lou,Allen,datge@uza.bt,Female,NV,Hunufliz,Ufto Path,QC,15720
191,Ralph,Waters,eduorkek@dewuwe.tk,Male,NE,Icsomaf,Esatot Square,YT,69933
192,Linnie,Mason,housanir@rakpozel.rs,Female,IL,Jatiwooz,Jufa Center,MB,09608
193,Landon,Evans,igo@korcejev.org,Female,OH,Fubactol,Dijet Parkway,NL,63184
194,Isabel,Watkins,botukjon@zaf.im,Female,VA,Osulaco,Icpic Boulevard,MB,98724
195,Verna,Estrada,vimwe@huruc.sg,Female,CT,Suwojrin,Udhi Mill,PE,93431
196,Andrew,Burgess,durak@kem.cw,Female,VA,Zuzmalpa,Gonif Heights,YT,49156
197,Francisco,Barnes,labesabe@vucce.net,Female,DC,Ewuziar,Irdu Glen,PE,47281
198,Nettie,Grant,betueg@upo.mz,Female,WV,Rebbugub,Surhog Mill,AB,00826
199,Juan,Brock,ki@fupsolto.br,Female,OK,Uztilu,Jewpot Point,NU,18534