seq,source,target
1,3617,4629
2,5877,7731
3,3067,1622
4,958,5440
5,4641,7368
6,3142,2523
7,6218,5335
8,3897,6435
9,4435,7020
10,2592,6428
11,2728,8224
12,9347,9933
13,8122,5419
14,4755,279
15,977,6250
16,1215,724
17,307,5189
18,1707,7005
19,7785,1713
20,6810,5090
21,8382,5488
22,1075,9240
23,3797,1039
24,5525,284
25,281,5799
26,3489,4052
27,4256,7458
28,9462,7689
29,4422,9550
30,2435,9387
31,1599,9772
32,4073,9995
33,8421,5472
34,3780,4077
35,2642,1988
36,4467,5701
37,6439,2606
38,6959,8558
39,3179,9888
40,383,5539
41,3614,3053
42,1369,4721
43,7950,2990
44,3283,4695
45,2093,2860
46,1071,9951
47,6174,1152
48,4017,57
49,2843,4786
50,1143,2260
51,2173,7334
52,2931,1366
53,4823,8234
54,8405,9807
55,963,2794
56,5217,310
57,1329,4426
58,9684,5477
59,214,4091
60,3453,3227
61,1763,9949
62,7969,280
63,9,1009
64,8493,4203
65,128,5945
66,3829,1070
67,2560,7154
68,4218,2084
69,4491,9813
70,5549,8710
71,5600,7058
72,5403,909
73,17,9326
74,7462,7815
75,9897,2864
76,217,242
77,1112,672
78,8999,6446
79,5786,6230
80,2142,4174
81,3232,5173
82,2674,8326
83,9737,4597
84,1608,8324
85,4543,7864
86,6126,8444
87,3130,3192
88,1008,9765
89,8296,9307
90,2468,4348
91,3576,7407
92,6666,3872
93,6075,4781
94,8639,2684
95,8463,522
96,8454,2053
97,7751,7445
98,4166,458
99,7382,4996
100,8170,300
101,7976,6628
102,5172,2374
103,112,978
104,9725,2158
105,9750,2450
106,4061,151
107,833,6070
108,5568,6612
109,1448,9062
110,5229,4073
111,8542,3456
112,7560,9809
113,6177,6643
114,3859,2979
115,5081,8807
116,8619,4644
117,2194,6054
118,6576,4733
119,4132,3141
120,3702,745
121,6550,6452
122,4073,3793
123,8929,9063
124,3999,7244
125,4258,6053
126,8322,798
127,1863,535
128,5435,9642
129,1718,1919
130,3038,5336
131,5984,8314
132,8566,9069
133,3601,4212
134,1115,8719
135,6925,3662
136,9077,2402
137,1197,3554
138,591,3292
139,2118,9362
140,3221,558
141,4340,1155
142,8557,384
143,4263,4334
144,9206,1119
145,5329,7662
146,3411,8745
147,8586,131
148,1316,1037
149,3707,5213
150,2726,1070
151,8933,8553
152,6365,746
153,3358,2827
154,6611,7471
155,5027,7546
156,2409,6772
157,3979,9226
158,9019,265
159,7897,2166
160,8286,7530
161,2467,8259
162,299,5919
163,2109,6893
164,9606,9583
165,4997,916
166,7633,789
167,7939,2069
168,2125,8994
169,960,7125
170,1998,1780
171,3898,9034
172,2404,8432
173,652,2088
174,2810,3014
175,5687,8567
176,9072,157
177,3710,6972
178,5404,1985
179,6731,9530
180,1019,1748
181,768,5832
182,6164,2090
183,4524,6103
184,1329,1658
185,1296,237
186,4826,5342
187,8857,2918
188,5587,6295
189,3408,4614
190,9574,7123
191,1944,2331
192,1898,1925
193,1055,9776
194,8903,794
195,398,5225
196,9309,2353
197,7520,6740
198,5174,5878
199,7212,754
200,3686,1169
201,8638,8424
202,7378,1316
203,5011,1923
204,4800,3282
205,3381,9842
206,2900,8498
207,3076,4942
208,2060,5623
209,3654,9902
210,7564,1365
211,3373,5443
212,3949,5528
213,6771,3838
214,1025,7520
215,8967,3871
216,6196,4721
217,9328,189
218,2990,61
219,5969,9616
220,2448,5135
221,931,2570
222,6569,1094
223,291,5639
224,6898,4801
225,1038,3315
226,7587,9971
227,6762,2122
228,5624,6189
229,9373,2217
230,5252,3074
231,9196,7152
232,9593,5416
233,3012,5245
234,9925,7984
235,9104,238
236,970,4008
237,6020,4858
238,7857,178
239,8402,5129
240,993,3301
241,7567,3052
242,4746,7218
243,2284,4713
244,632,405
245,1314,1011
246,8543,6648
247,8954,997
248,8209,3981
249,7272,7898
250,4908,5906
251,5329,1955
252,1923,9037
253,7602,1395
254,8440,3444
255,6230,6956
256,5909,5957
257,9525,9142
258,7806,539
259,7299,2668
260,1751,9108
261,2918,4704
262,1073,1833
263,7660,9951
264,2166,3196
265,3760,7562
266,8119,907
267,1922,9655
268,395,9895
269,3116,7112
270,2343,4226
271,3990,5944
272,2551,4042
273,2225,4925
274,7240,3851
275,366,6157
276,6083,7627
277,2483,6803
278,8277,5695
279,2044,2521
280,4674,2757
281,3805,7483
282,7357,9706
283,1879,5411
284,2001,2103
285,2681,1611
286,1986,7319
287,7443,6139
288,8209,211
289,7362,9608
290,1342,7707
291,3688,3470
292,5001,783
293,6226,7290
294,6981,4668
295,816,3476
296,7577,2950
297,5849,82
298,3965,4834
299,1348,3120
300,9002,6717
301,3509,7559
302,3720,9757
303,197,4961
304,1915,279
305,7422,442
306,2008,4528
307,6728,5816
308,7828,9705
309,9351,8261
310,285,5112
311,1802,7334
312,4749,6351
313,5054,7890
314,383,9938
315,7524,5101
316,7376,9850
317,9061,2878
318,1044,6454
319,8211,2622
320,1200,4223
321,477,9629
322,2722,3765
323,555,2915
324,6335,2090
325,16,209
326,4850,2911
327,8154,7080
328,4286,935
329,7802,5942
330,7710,4905
331,6860,4107
332,779,9528
333,9098,6611
334,1200,8887
335,8785,2932
336,2497,369
337,4225,186
338,3594,3846
339,7943,7735
340,6332,4841
341,390,6869
342,8875,7603
343,2722,4573
344,6908,1654
345,3073,7600
346,6970,6794
347,8467,5972
348,8576,1896
349,9372,9595
350,7876,3554
351,9228,7778
352,8519,9023
353,6038,509
354,1007,251
355,4070,3404
356,3250,1849
357,6415,4203
358,1605,3965
359,1373,7576
360,3574,1083
361,3354,9020
362,2601,2301
363,982,205
364,939,1089
365,4453,9112
366,5536,9232
367,2438,3558
368,8193,253
369,9515,648
370,2884,6239
371,5909,1914
372,1739,2398
373,3734,978
374,1067,2361
375,8750,2079
376,775,1358
377,2744,3351
378,5184,8310
379,3572,3236
380,1616,2772
381,5574,2601
382,6692,8771
383,7250,7491
384,8701,4356
385,3219,3776
386,6395,3658
387,3047,9265
388,3577,3807
389,2052,4126
390,5202,3113
391,7057,1668
392,9114,4134
393,5894,8770
394,1175,5354
395,3907,3556
396,274,2341
397,6133,3847
398,7883,7864
399,7542,7847
400,7776,9956
401,6475,3470
402,8322,5846
403,8631,2291
404,6588,9119
405,1830,6188
406,6794,8263
407,8443,3072
408,4523,1263
409,8622,5437
410,4420,8069
411,2220,1676
412,9092,6442
413,4772,8100
414,1388,8058
415,7522,6189
416,7834,2220
417,4540,4092
418,25,8634
419,9308,9187
420,8329,858
421,1096,5501
422,8999,3392
423,3741,2956
424,8090,5118
425,6625,9901
426,5989,8673
427,7579,8406
428,6834,8900
429,2966,2757
430,5974,8233
431,7951,1648
432,2148,5214
433,4967,4485
434,9012,4625
435,6657,972
436,4356,274
437,3059,7886
438,178,2747
439,687,6706
440,3791,5100
441,6694,5995
442,4165,9601
443,7450,9600
444,8448,4210
445,66,4376
446,3010,9168
447,4335,6866
448,2111,5655
449,6402,5069
450,9205,6694
451,5492,5171
452,2977,9895
453,7261,1878
454,7025,7003
455,5060,6101
456,6954,5029
457,4287,7599
458,4783,7561
459,904,1270
460,4970,6569
461,9989,8770
462,8927,486
463,8083,1109
464,6947,5664
465,4694,2197
466,1957,9704
467,5009,6200
468,6708,307
469,9026,8994
470,9222,114
471,265,2000
472,7848,5358
473,5038,6025
474,6989,8724
475,2470,2679
476,7506,8935
477,6432,2817
478,182,2898
479,635,3102
480,6624,6492
481,9794,3102
482,169,577
483,4660,5290
484,8043,2485
485,9961,10
486,3037,6252
487,3021,9253
488,281,9593
489,8789,6041
490,4411,6570
491,5375,434
492,5149,3387
493,9532,1930
494,5371,7352
495,9273,4401
496,1488,630
497,9235,570
498,7090,7480
499,4576,3737
500,6227,575
501,8147,5851
502,4564,2993
503,5361,3271
504,7879,5602
505,7930,1459
506,491,4450
507,6304,1692
508,7912,1197
509,6695,3628
510,5618,2050
511,7691,1762
512,3031,6054
513,473,966
514,6107,4717
515,6182,2311
516,5482,8237
517,6871,5262
518,9433,6471
519,4946,9674
520,6125,8870
521,3515,4523
522,3877,6430
523,4408,2880
524,5892,3138
525,109,8096
526,3519,4325
527,6291,8982
528,9108,2608
529,6787,1501
530,4655,5016
531,7191,7019
532,7545,718
533,8515,6571
534,9431,6820
535,297,3651
536,5508,1043
537,7407,3265
538,7475,9750
539,7322,4044
540,1173,4656
541,3460,5715
542,4801,8748
543,4765,8743
544,7379,4494
545,6223,9963
546,1883,8401
547,8096,358
548,369,3
549,3356,6596
550,3000,7922
551,3929,344
552,9660,848
553,7049,7857
554,5221,6568
555,3097,6218
556,271,525
557,2101,2243
558,9412,3101
559,5372,5165
560,1156,9481
561,1154,2028
562,8374,6796
563,3765,1037
564,4282,441
565,875,9756
566,8727,5530
567,5594,2774
568,1474,5435
569,6685,9920
570,5302,3253
571,5535,3686
572,1549,4471
573,1482,7854
574,5240,7106
575,8480,8433
576,4075,4542
577,3668,8933
578,5786,3214
579,3950,6962
580,675,7802
581,7646,3195
582,7597,305
583,3861,5307
584,5559,8874
585,5186,5975
586,3400,3084
587,3302,93
588,3758,2803
589,7464,6532
590,6178,5406
591,8793,1976
592,4817,6529
593,8875,5224
594,3604,9835
595,8493,9750
596,1005,593
597,1395,6947
598,726,2387
599,9953,2079
600,886,6889
601,8225,5971
602,3459,9589
603,7719,6555
604,4979,2142
605,519,30
606,2172,1904
607,5493,2802
608,2888,1472
609,7561,8762
610,8563,1148
611,4284,3993
612,5354,761
613,7966,7607
614,9218,7954
615,2666,1979
616,7215,6681
617,2786,8457
618,9702,9744
619,7416,1587
620,867,6679
621,9515,5323
622,1737,7486
623,3373,9903
624,9838,3224
625,4471,9765
626,5751,990
627,5233,1979
628,4278,9293
629,1882,7169
630,946,5367
631,5094,2685
632,8168,4043
633,4550,6051
634,3680,6603
635,8532,7440
636,2215,4022
637,4490,5467
638,3099,6075
639,1505,9852
640,2171,7499
641,2886,5665
642,7638,2875
643,8342,5109
644,7974,4283
645,7688,7785
646,9224,8778
647,2773,6754
648,6090,4790
649,4820,3855
650,5665,8038
651,8260,9076
652,9018,9810
653,4343,4473
654,6952,4377
655,5761,5880
656,3303,2315
657,5987,6938
658,6327,9953
659,8829,9506
660,6319,9251
661,1283,4700
662,3633,4587
663,8359,2303
664,4747,1302
665,7644,1904
666,4728,407
667,8486,2547
668,8431,6194
669,2249,6574
670,7731,1179
671,1864,6274
672,1060,8522
673,2165,2888
674,145,4873
675,2056,1046
676,1618,1194
677,1425,3474
678,5749,3228
679,6224,5179
680,2761,4386
681,3335,3002
682,8209,3410
683,3766,5107
684,6496,8630
685,8854,9571
686,2120,4562
687,8933,9479
688,1368,9635
689,4259,9558
690,9938,2794
691,1470,9769
692,2809,9715
693,5097,7075
694,9689,7728
695,3124,309
696,1054,2270
697,3682,8352
698,2320,27
699,3624,4893
700,8742,4096
701,4689,2616
702,4014,8247
703,1017,7250
704,684,4015
705,9974,3124
706,4723,7866
707,6868,8258
708,9017,9309
709,8358,5282
710,4375,6930
711,3551,309
712,8390,6532
713,9454,125
714,5006,5130
715,5468,9679
716,3888,5512
717,641,5147
718,1076,8641
719,4752,2519
720,6172,2782
721,584,5571
722,2575,8082
723,1734,1206
724,8388,2277
725,3926,9142
726,433,9573
727,6433,9801
728,6647,648
729,1489,526
730,7809,9669
731,3725,6722
732,9373,4310
733,181,2781
734,2239,8142
735,1985,9915
736,6548,8687
737,1030,8838
738,1947,2895
739,7411,3754
740,4121,20
741,8654,7399
742,6378,395
743,1339,2166
744,4316,5109
745,9765,8073
746,2828,5770
747,3770,5786
748,5378,9927
749,8871,9816
750,826,9558
751,5696,7659
752,7447,6959
753,3500,9814
754,432,2554
755,6050,2901
756,9175,6166
757,5708,7220
758,3147,9685
759,3669,877
760,2425,2327
761,8141,4994
762,3631,3855
763,328,6906
764,87,4643
765,5778,8120
766,4557,6847
767,487,6548
768,5443,9111
769,125,6084
770,734,1403
771,8519,7047
772,2533,3440
773,7497,2256
774,1250,5267
775,8965,3407
776,1596,5193
777,8612,7426
778,8773,6549
779,4864,5923
780,3252,6642
781,5116,8218
782,2065,5266
783,9486,1421
784,2170,1026
785,5191,615
786,4237,593
787,1887,4252
788,1833,1358
789,8954,1864
790,1649,3853
791,2931,2511
792,3677,8412
793,3094,6075
794,9652,4672
795,8898,4047
796,878,5637
797,7194,8690
798,3443,7863
799,2777,4623
800,9703,8061
801,8287,527
802,1357,9754
803,1078,5262
804,539,627
805,9505,2262
806,8653,8048
807,9998,3171
808,5594,6305
809,3435,3726
810,6196,2612
811,2596,7630
812,3799,451
813,161,1709
814,9895,7045
815,5946,9108
816,4658,7799
817,8141,5267
818,862,720
819,1928,3162
820,4117,5231
821,8794,6852
822,8376,6747
823,3689,2446
824,5907,4137
825,9266,1681
826,7088,4344
827,5265,6254
828,6403,6274
829,925,1739
830,1987,5653
831,3101,9452
832,1560,7528
833,1493,8833
834,7175,6164
835,3957,5713
836,5933,6091
837,8008,692
838,6787,4587
839,2325,1977
840,2920,5815
841,7653,3385
842,2376,5607
843,7620,4768
844,6685,9336
845,319,6134
846,7184,1443
847,9199,9628
848,5602,3662
849,8007,2531
850,2052,3667
851,6526,6201
852,6963,1491
853,1060,8471
854,2653,5534
855,8318,7980
856,4139,9494
857,8747,5726
858,6798,9013
859,4722,7763
860,750,8229
861,8951,3589
862,5854,2531
863,6001,3482
864,678,6758
865,1932,1840
866,4353,8526
867,3467,8801
868,3908,584
869,5011,6863
870,1976,6639
871,3492,405
872,2236,5913
873,3062,6405
874,8004,8628
875,6472,1665
876,6467,4191
877,1161,8779
878,5261,6041
879,4456,8813
880,3176,2253
881,5737,8811
882,4611,9984
883,4153,1436
884,5160,9335
885,2316,7115
886,2110,3021
887,2757,8842
888,856,1274
889,1686,1058
890,8543,745
891,179,535
892,9461,3225
893,4128,3613
894,6080,1071
895,1927,7350
896,4428,7795
897,6144,7173
898,6235,5150
899,314,392
900,4519,2946
901,7389,5114
902,2649,7203
903,5928,4256
904,6160,4998
905,8182,7902
906,6159,3096
907,734,5750
908,9054,9458
909,5435,912
910,9521,4087
911,9984,7921
912,5746,809
913,3802,2119
914,4680,7711
915,3495,9374
916,6144,5549
917,3825,808
918,2440,3332
919,1038,6324
920,9254,7204
921,4334,5642
922,6366,4228
923,4850,4248
924,4352,9267
925,3241,7018
926,169,4473
927,2851,7600
928,9780,6918
929,281,6428
930,946,842
931,16,7117
932,6613,9071
933,8494,6112
934,2988,5613
935,5619,855
936,1311,8281
937,7647,3472
938,7234,5152
939,4719,5080
940,3231,7203
941,5186,9815
942,5918,1225
943,7290,4
944,5709,3059
945,1950,5239
946,1400,4931
947,9605,7502
948,3966,7309
949,1375,3106
950,8256,9791
951,654,9388
952,8538,3663
953,4072,7574
954,1400,9213
955,8102,5109
956,5082,7428
957,5212,1259
958,8058,7816
959,7324,727
960,3129,8654
961,5511,9014
962,7190,6520
963,2129,3124
964,7586,7459
965,2623,2047
966,1854,960
967,6605,6297
968,4632,3940
969,8576,206
970,3593,7873
971,24,5567
972,4704,5656
973,6012,9241
974,1153,4052
975,3905,3673
976,2597,8939
977,642,5118
978,8597,8913
979,3072,9953
980,5358,3393
981,2262,7467
982,4001,862
983,6437,109
984,5040,420
985,7777,2291
986,2557,9781
987,7717,2875
988,9860,3388
989,7974,5719
990,2431,4030
991,9983,9230
992,3077,8992
993,539,601
994,8282,646
995,9536,8595
996,8103,9868
997,7196,3609
998,8481,1336
999,9358,6141
1000,8833,6066
1001,2042,7728
1002,4657,3305
1003,8335,5984
1004,4720,9026
1005,8466,3482
1006,645,7814
1007,2686,1979
1008,7045,3540
1009,1384,2333
1010,8412,2452
1011,4045,1145
1012,726,2711
1013,8420,2525
1014,373,4491
1015,3600,5921
1016,6168,6080
1017,4464,1673
1018,4998,7939
1019,2986,9248
1020,4296,2240
1021,4695,1042
1022,8923,7172
1023,3427,1936
1024,4163,884
1025,9694,1016
1026,2185,5246
1027,4040,4682
1028,4016,581
1029,3878,1102
1030,6320,4485
1031,5686,8004
1032,9058,7538
1033,5586,5608
1034,1369,1494
1035,5707,1139
1036,9948,9648
1037,7936,5849
1038,906,9657
1039,1062,1451
1040,4568,7633
1041,7839,3037
1042,8910,6329
1043,1514,7420
1044,3054,9826
1045,340,3487
1046,4671,5872
1047,7271,5094
1048,6010,7387
1049,9522,2436
1050,293,2942
1051,1122,8548
1052,5207,5745
1053,6429,2785
1054,3306,5526
1055,8817,7487
1056,9706,9411
1057,7334,4857
1058,9766,2674
1059,3384,4427
1060,5765,6233
1061,9151,790
1062,847,6214
1063,8909,4875
1064,4451,9529
1065,353,2518
1066,3351,3575
1067,4665,1737
1068,4984,8910
1069,6659,1062
1070,501,9179
1071,7308,9214
1072,9227,6231
1073,3054,2346
1074,3679,6425
1075,9434,2013
1076,3945,9923
1077,6211,5137
1078,4537,4092
1079,9177,6904
1080,7435,1683
1081,7351,5281
1082,5842,8627
1083,8083,5475
1084,7555,8471
1085,811,2674
1086,2118,6116
1087,4611,4901
1088,7223,5701
1089,8433,6609
1090,816,2655
1091,438,1092
1092,419,7119
1093,2124,1501
1094,4806,9737
1095,7594,5200
1096,2115,4642
1097,8086,2269
1098,3592,1708
1099,421,9162
1100,3952,9302
1101,3997,6092
1102,3175,9303
1103,7387,4459
1104,7576,1754
1105,9603,1883
1106,1599,4712
1107,2648,308
1108,8879,4458
1109,7795,134
1110,1306,314
1111,2573,7752
1112,792,7009
1113,8999,6003
1114,9845,8562
1115,5636,8328
1116,5167,2109
1117,2051,2938
1118,1155,3183
1119,7916,7699
1120,475,7305
1121,2333,1082
1122,8113,6075
1123,2571,2905
1124,712,3523
1125,4884,9070
1126,2176,7317
1127,1614,2422
1128,8069,1301
1129,9861,3131
1130,3950,8910
1131,1175,5309
1132,7376,3435
1133,1602,2612
1134,5295,806
1135,3657,7733
1136,9914,809
1137,8334,1072
1138,7585,1712
1139,3413,8585
1140,564,2686
1141,6888,6865
1142,8577,371
1143,3753,3597
1144,5304,8897
1145,3684,4379
1146,8596,5143
1147,8997,199
1148,654,385
1149,7424,8436
1150,6059,8623
1151,7348,6577
1152,4194,6724
1153,2406,1786
1154,386,6401
1155,5661,868
1156,7118,3071
1157,6773,3989
1158,4242,2590
1159,2596,1644
1160,9833,6275
1161,2998,4567
1162,97,5352
1163,2094,2197
1164,7673,2719
1165,849,4130
1166,3937,54
1167,137,737
1168,6034,2035
1169,1506,7184
1170,9317,553
1171,7387,5362
1172,8961,5866
1173,7606,665
1174,8005,8174
1175,8955,3356
1176,7023,9539
1177,4516,6955
1178,4644,583
1179,4489,5824
1180,415,5810
1181,8987,6969
1182,6273,4499
1183,3102,5783
1184,9680,6008
1185,7252,1808
1186,2246,4615
1187,6205,1593
1188,7339,7551
1189,5736,1043
1190,3751,1509
1191,4746,7376
1192,9580,1313
1193,3050,1455
1194,3118,720
1195,4075,875
1196,4931,836
1197,8795,7760
1198,7135,6609
1199,6034,6410
1200,1846,3858
1201,9845,3241
1202,5846,8919
1203,5403,86
1204,8540,5975
1205,3715,4565
1206,1417,3822
1207,8746,8336
1208,4797,9279
1209,4149,8059
1210,3350,1305
1211,7462,9143
1212,1063,1467
1213,77,833
1214,4579,6279
1215,4163,9755
1216,8403,7904
1217,8560,776
1218,5672,6284
1219,3482,3733
1220,7244,3568
1221,7751,7848
1222,6688,9375
1223,4632,96
1224,4470,2814
1225,9306,8472
1226,9099,7554
1227,2126,9469
1228,2210,1217
1229,6210,3190
1230,7671,9488
1231,2831,1391
1232,6644,6215
1233,9800,4544
1234,4545,7886
1235,3392,3303
1236,7978,5556
1237,6064,3187
1238,246,6085
1239,4381,8909
1240,3655,7982
1241,371,2604
1242,9945,8770
1243,4633,5564
1244,6085,7808
1245,4825,6917
1246,6180,6928
1247,7167,6580
1248,7309,2358
1249,8887,9501
1250,7796,8277
1251,6724,7505
1252,5384,3223
1253,2477,768
1254,5118,9225
1255,878,7244
1256,2718,6350
1257,8401,1984
1258,6540,15
1259,1412,5768
1260,5021,8330
1261,9809,8609
1262,7817,6664
1263,995,5400
1264,4632,504
1265,5633,962
1266,8687,5080
1267,5163,6125
1268,5107,9333
1269,3533,7523
1270,8574,5579
1271,6859,8761
1272,8364,9355
1273,7952,5554
1274,7114,4294
1275,9688,2103
1276,8459,4685
1277,2950,226
1278,4788,7160
1279,3433,8057
1280,8887,5329
1281,9811,145
1282,753,2410
1283,857,519
1284,5205,3493
1285,2135,5249
1286,4150,1008
1287,7041,2111
1288,3854,6820
1289,4919,8156
1290,1177,5421
1291,4259,1389
1292,5340,2396
1293,4528,2858
1294,4092,963
1295,2889,3363
1296,3348,9548
1297,8750,8731
1298,5828,7251
1299,9418,5213
1300,1500,7139
1301,6491,9666
1302,1965,9710
1303,9008,6545
1304,4894,5492
1305,3094,5989
1306,4121,6381
1307,4966,8229
1308,3302,1127
1309,6228,2089
1310,1403,245
1311,5702,931
1312,4102,7594
1313,7554,9452
1314,9156,804
1315,4638,6617
1316,7155,1348
1317,2882,2267
1318,9805,6481
1319,3945,6275
1320,8907,5882
1321,4616,3831
1322,4934,1516
1323,1905,9365
1324,9634,9512
1325,4017,3199
1326,5273,5581
1327,8420,2253
1328,3674,1167
1329,5833,2271
1330,7291,5433
1331,7009,2864
1332,8687,1283
1333,6336,4611
1334,5920,970
1335,7174,9840
1336,5454,7253
1337,8704,9409
1338,3246,6526
1339,3147,1791
1340,682,8067
1341,5525,9389
1342,7989,9095
1343,2584,7957
1344,5956,1529
1345,2949,1960
1346,7590,2813
1347,5937,6238
1348,3516,2556
1349,5619,4562
1350,8434,154
1351,3136,5066
1352,9712,2069
1353,5726,70
1354,8090,3320
1355,5001,1614
1356,4333,5798
1357,4683,357
1358,377,3930
1359,5669,656
1360,6341,314
1361,5349,8395
1362,9579,6345
1363,3756,1656
1364,96,6356
1365,1056,7431
1366,556,8749
1367,6419,5064
1368,1299,7488
1369,8221,7811
1370,5797,9252
1371,3799,9114
1372,5439,2115
1373,4333,6537
1374,7591,2905
1375,6677,6785
1376,5524,8559
1377,4380,4295
1378,8991,2488
1379,1332,8998
1380,6276,4357
1381,8693,3056
1382,5270,396
1383,5788,8433
1384,3154,4402
1385,1869,8938
1386,5102,746
1387,9736,5972
1388,9419,4944
1389,8530,8879
1390,9388,1326
1391,7718,4029
1392,4286,8720
1393,5759,6872
1394,7879,8128
1395,7309,5939
1396,1422,5262
1397,1272,1331
1398,7867,4631
1399,7350,5279
1400,5742,3018
1401,9736,4083
1402,909,7761
1403,7555,8608
1404,8198,9985
1405,935,5968
1406,730,8036
1407,230,4540
1408,5630,8115
1409,5961,7962
1410,9381,1842
1411,9643,9579
1412,5452,7154
1413,8725,5653
1414,5655,4161
1415,5336,7662
1416,286,2632
1417,7869,6527
1418,8117,6203
1419,9467,2561
1420,7346,5560
1421,1214,3842
1422,5806,5554
1423,8688,7465
1424,5109,3347
1425,673,7425
1426,5729,2109
1427,4986,2255
1428,1328,1692
1429,8461,9232
1430,9630,4394
1431,9931,8334
1432,7339,1280
1433,9655,769
1434,1128,4364
1435,2499,425
1436,9654,9375
1437,3097,6734
1438,3318,8760
1439,6517,9523
1440,1011,6847
1441,6798,1802
1442,3689,3495
1443,9586,6816
1444,7792,9351
1445,5249,9153
1446,727,9695
1447,785,5677
1448,3973,4243
1449,9783,2896
1450,9821,1853
1451,1366,8428
1452,5434,6222
1453,5124,2302
1454,6275,3134
1455,5220,3659
1456,3261,8063
1457,8499,5187
1458,9825,6687
1459,3991,3804
1460,512,4875
1461,8534,9111
1462,2730,9739
1463,5896,898
1464,6184,3498
1465,1576,1061
1466,6209,2131
1467,6405,2507
1468,1307,7484
1469,3779,1716
1470,269,4966
1471,4437,7319
1472,6700,3
1473,3964,1704
1474,9499,7746
1475,2355,33
1476,1244,4642
1477,1429,8868
1478,1597,5537
1479,193,4811
1480,6656,1460
1481,4681,1091
1482,2643,5516
1483,3684,7765
1484,7566,8611
1485,2866,588
1486,3922,5889
1487,8705,6126
1488,7093,9917
1489,3068,4475
1490,9121,9782
1491,3302,5529
1492,4165,4557
1493,8508,77
1494,1624,3111
1495,3990,5524
1496,2332,9295
1497,7008,4952
1498,2329,1443
1499,412,7380
1500,2187,5188
1501,6917,8527
1502,7866,70
1503,4485,9693
1504,1095,9103
1505,922,1008
1506,5799,5150
1507,8033,9538
1508,984,2549
1509,5786,3647
1510,577,8815
1511,4776,1250
1512,1725,3834
1513,8303,4954
1514,7342,8868
1515,7142,6248
1516,2531,4920
1517,6483,9929
1518,3430,5910
1519,3758,7982
1520,2717,84
1521,2766,8965
1522,1806,8038
1523,2410,2155
1524,1100,4855
1525,5549,9914
1526,2852,5615
1527,8205,9934
1528,3559,7922
1529,9654,9242
1530,4363,8888
1531,5564,8624
1532,1626,550
1533,4909,782
1534,3076,2279
1535,7358,3451
1536,1859,7106
1537,9537,1968
1538,9801,2546
1539,8217,5551
1540,6046,2368
1541,4105,4017
1542,4471,8041
1543,4079,9210
1544,153,6458
1545,8774,5032
1546,9099,4482
1547,7947,8131
1548,6219,1362
1549,9287,1604
1550,851,2780
1551,3136,5421
1552,6661,129
1553,9874,9075
1554,2973,9200
1555,27,688
1556,5372,6085
1557,5344,7120
1558,7735,1214
1559,1186,4624
1560,9718,1219
1561,1531,2546
1562,5617,9497
1563,1386,9101
1564,9514,5879
1565,9767,6762
1566,1383,6699
1567,7685,1847
1568,9635,732
1569,860,2221
1570,7142,5629
1571,3439,6754
1572,5446,2247
1573,2454,4729
1574,498,9109
1575,6720,888
1576,5332,9746
1577,6124,8957
1578,6466,1500
1579,6364,4818
1580,1434,2058
1581,797,8065
1582,8078,4160
1583,9599,2973
1584,7265,1805
1585,8293,8499
1586,6683,6135
1587,8970,928
1588,7316,7374
1589,9764,9591
1590,5819,5084
1591,2475,7535
1592,313,2200
1593,2521,3913
1594,5525,8628
1595,7824,7966
1596,7380,9725
1597,8709,8097
1598,9103,7376
1599,3140,1406
1600,2453,4041
1601,8247,3342
1602,4727,59
1603,3807,1491
1604,7738,5978
1605,3265,9769
1606,636,4521
1607,9136,2611
1608,4580,9423
1609,3791,9224
1610,2973,7367
1611,5270,4187
1612,540,6865
1613,3572,6585
1614,1957,5733
1615,5180,6154
1616,7920,9212
1617,4904,2439
1618,9516,5910
1619,9129,1706
1620,877,4061
1621,7861,2216
1622,5441,3110
1623,9884,476
1624,5040,5403
1625,4863,8732
1626,121,3597
1627,7308,9910
1628,8894,2838
1629,2134,4465
1630,2459,3726
1631,1412,9596
1632,1078,2662
1633,427,2054
1634,5662,9028
1635,2200,9847
1636,1417,9411
1637,6906,3932
1638,5611,5156
1639,8535,9937
1640,8792,8716
1641,4693,8488
1642,3036,4890
1643,3791,7021
1644,3627,6833
1645,3775,8375
1646,9462,2608
1647,7657,4011
1648,5282,2674
1649,2198,6338
1650,2613,3134
1651,5673,1250
1652,8263,8651
1653,6797,2495
1654,5682,2947
1655,6124,1629
1656,1600,6539
1657,2813,727
1658,9706,5840
1659,4417,8658
1660,7526,5640
1661,2737,2671
1662,1023,1374
1663,3789,1534
1664,6114,9525
1665,9125,8464
1666,4416,2137
1667,444,2560
1668,8117,6140
1669,8642,5909
1670,6922,7766
1671,6744,5194
1672,5541,355
1673,4269,7039
1674,9393,4752
1675,6885,5980
1676,4310,1416
1677,5470,7402
1678,448,3532
1679,4,1959
1680,2737,2449
1681,450,9136
1682,4165,5308
1683,2822,3328
1684,937,9376
1685,4216,6532
1686,5854,3885
1687,2524,2545
1688,9621,2735
1689,3568,3251
1690,5373,1952
1691,3522,4105
1692,4471,5612
1693,7925,8841
1694,9015,5952
1695,7180,8553
1696,2166,3046
1697,6039,9701
1698,8108,9428
1699,4365,3660
1700,3492,2177
1701,1582,5926
1702,7831,1950
1703,1419,1786
1704,832,5337
1705,3793,6488
1706,1833,4437
1707,3787,4726
1708,6563,7687
1709,8611,5355
1710,6289,741
1711,8790,181
1712,8184,6179
1713,5835,903
1714,2096,9341
1715,9714,6543
1716,8466,6705
1717,4383,7309
1718,1515,5658
1719,7780,2975
1720,7896,556
1721,3686,4541
1722,8878,875
1723,7422,7927
1724,1666,2950
1725,7908,1869
1726,6371,3825
1727,5392,2994
1728,6185,3863
1729,6483,804
1730,6284,5332
1731,8317,6911
1732,1842,4231
1733,6103,9762
1734,2743,468
1735,4464,7971
1736,4072,3390
1737,1896,4425
1738,3837,7347
1739,2999,1138
1740,267,8457
1741,8597,2072
1742,8453,3001
1743,8883,8984
1744,9893,7063
1745,7439,2436
1746,7364,2770
1747,2642,4935
1748,4513,7988
1749,2014,7629
1750,6075,8009
1751,6724,5473
1752,9665,8202
1753,7263,8852
1754,5989,8
1755,3028,5131
1756,1504,1558
1757,3440,3208
1758,4829,6259
1759,8474,8104
1760,440,5970
1761,2265,6027
1762,8777,220
1763,7594,5980
1764,7860,1822
1765,9681,5128
1766,6999,4256
1767,1400,6800
1768,8011,1814
1769,5175,7720
1770,303,7849
1771,8893,8122
1772,8471,7881
1773,7419,9910
1774,2274,2098
1775,4437,3923
1776,9290,1420
1777,632,1893
1778,3001,1022
1779,1018,652
1780,2570,9351
1781,9540,9003
1782,778,4644
1783,4615,8366
1784,2523,4394
1785,6581,9485
1786,140,2495
1787,2167,3715
1788,5141,2127
1789,3007,7635
1790,7843,5734
1791,5128,4859
1792,9050,3226
1793,8270,5255
1794,2436,3482
1795,4264,4351
1796,4655,4472
1797,450,5054
1798,5289,6492
1799,8161,9086
1800,7295,8770
1801,4989,2971
1802,659,3935
1803,6922,2392
1804,7231,5809
1805,9698,9079
1806,4517,2766
1807,8209,5408
1808,258,1380
1809,733,238
1810,6768,9944
1811,3364,2607
1812,4900,8371
1813,8255,2617
1814,2294,3930
1815,325,4658
1816,124,7812
1817,6919,2065
1818,7113,9071
1819,6611,7885
1820,7645,368
1821,974,2138
1822,5988,6555
1823,240,6707
1824,8788,4332
1825,3537,2154
1826,9468,4482
1827,4176,9051
1828,1794,8984
1829,9184,1916
1830,6203,6880
1831,1097,6702
1832,2179,8835
1833,6345,9514
1834,7577,65
1835,7069,8606
1836,5640,3037
1837,6375,2188
1838,4322,2223
1839,8099,6097
1840,6224,9044
1841,9627,4441
1842,77,9526
1843,1094,5379
1844,2438,4880
1845,2756,898
1846,869,1947
1847,4392,5809
1848,9949,6018
1849,1712,7471
1850,6708,999
1851,5392,3206
1852,7387,6711
1853,8443,3009
1854,3796,396
1855,9137,5784
1856,687,867
1857,9681,808
1858,7870,3621
1859,1150,5351
1860,4370,5528
1861,5160,8669
1862,2251,532
1863,8426,3395
1864,9243,7269
1865,7185,8721
1866,7508,8084
1867,4505,5443
1868,5624,507
1869,6732,1945
1870,8494,3646
1871,1626,8947
1872,7665,8717
1873,1279,8185
1874,6842,630
1875,198,1394
1876,9838,7976
1877,3239,5005
1878,8998,8029
1879,3273,9235
1880,493,5328
1881,128,4275
1882,5541,5192
1883,3233,8056
1884,2898,9834
1885,3699,8675
1886,2233,9368
1887,2194,8245
1888,3915,8665
1889,5041,6067
1890,3305,6859
1891,666,5536
1892,7052,8824
1893,4130,6037
1894,9809,3072
1895,4772,5879
1896,1930,2952
1897,3977,7802
1898,1771,8234
1899,2780,6405
1900,8368,3402
1901,8904,1692
1902,696,3306
1903,7552,3673
1904,6610,3564
1905,7603,8777
1906,3193,5479
1907,7636,3730
1908,5449,6003
1909,560,816
1910,7569,3401
1911,7551,9472
1912,6272,5790
1913,1778,1444
1914,1746,592
1915,5100,1636
1916,1091,4878
1917,4900,513
1918,7676,8686
1919,5042,7038
1920,9257,6003
1921,2119,6135
1922,2898,5075
1923,7255,1416
1924,8538,7940
1925,1986,3699
1926,6264,8314
1927,3389,3754
1928,1626,936
1929,5243,9668
1930,3508,104
1931,1219,9954
1932,7671,4029
1933,8036,7321
1934,5769,2268
1935,964,8461
1936,3457,295
1937,2749,5376
1938,9084,9554
1939,6032,832
1940,2332,7777
1941,727,7163
1942,2254,6964
1943,1409,9851
1944,3486,4733
1945,9604,9286
1946,6406,6370
1947,8080,9909
1948,5049,5676
1949,4951,7071
1950,1440,9144
1951,4441,425
1952,2339,3979
1953,3234,7124
1954,5374,2143
1955,3234,1459
1956,4592,9534
1957,323,2677
1958,8755,939
1959,2800,1708
1960,7184,210
1961,8900,3521
1962,3123,6417
1963,6973,6544
1964,3810,832
1965,6237,1922
1966,6120,6212
1967,9763,9056
1968,3534,8997
1969,367,6718
1970,6402,858
1971,8322,4821
1972,6504,7026
1973,8640,8756
1974,5965,7890
1975,2818,9929
1976,9633,1408
1977,198,8231
1978,8412,648
1979,3862,2378
1980,2533,5311
1981,6121,8735
1982,323,416
1983,1061,2225
1984,459,7644
1985,6246,9518
1986,6757,8557
1987,2881,5287
1988,570,7973
1989,1485,1248
1990,9187,4248
1991,1075,9483
1992,5618,6576
1993,3782,4865
1994,2470,1636
1995,3321,6071
1996,7687,6972
1997,2046,32
1998,484,6485
1999,1411,5844
2000,941,9896
2001,8605,865
2002,4813,8685
2003,8239,5701
2004,6092,8512
2005,7284,4127
2006,7363,6245
2007,1284,7202
2008,5728,9809
2009,4243,4841
2010,9412,1529
2011,3232,4542
2012,8680,6382
2013,3434,6541
2014,5014,9689
2015,4824,6385
2016,4527,4391
2017,3540,5473
2018,4550,7190
2019,2054,4497
2020,2588,2103
2021,6290,4881
2022,2521,9299
2023,1296,5883
2024,458,8124
2025,7451,839
2026,9228,1403
2027,800,2342
2028,2244,4680
2029,9872,2970
2030,6971,3197
2031,928,4172
2032,8407,77
2033,1254,7453
2034,9835,2206
2035,3522,1806
2036,7299,6362
2037,1036,1184
2038,3614,4827
2039,6737,1582
2040,3129,7147
2041,1335,2433
2042,8813,9508
2043,9182,4563
2044,1897,5058
2045,2762,9660
2046,4459,7069
2047,7782,9644
2048,5695,8124
2049,3159,9683
2050,9338,3805
2051,5365,5256
2052,1298,1897
2053,9739,6509
2054,9194,3497
2055,3326,1591
2056,2117,602
2057,6584,5653
2058,395,5831
2059,6003,7616
2060,5532,2364
2061,2422,8984
2062,5211,731
2063,5321,8504
2064,8430,7202
2065,8379,2518
2066,9517,8145
2067,7211,1759
2068,1818,1063
2069,1608,6374
2070,7533,64
2071,7503,9532
2072,6498,5693
2073,723,998
2074,5736,3531
2075,2192,5022
2076,5400,7196
2077,8478,6161
2078,217,4056
2079,1659,4807
2080,7757,3072
2081,1488,8780
2082,9024,7531
2083,8448,7318
2084,57,2821
2085,7701,5629
2086,1998,5492
2087,4944,5474
2088,2864,33
2089,844,2642
2090,4923,2817
2091,5583,1075
2092,9540,392
2093,4879,1201
2094,5231,1352
2095,1293,5109
2096,7538,5256
2097,5545,6993
2098,6433,2730
2099,4383,3946
2100,7697,2577
2101,8428,2710
2102,8901,249
2103,5073,2798
2104,9274,9805
2105,3988,1017
2106,9252,4062
2107,4943,3222
2108,4720,9557
2109,6160,8662
2110,4145,5279
2111,2065,1277
2112,9407,3211
2113,7328,5913
2114,4787,8440
2115,5556,7117
2116,8830,2259
2117,3188,6635
2118,8942,4567
2119,7258,5632
2120,3344,3858
2121,5382,5089
2122,9835,474
2123,3896,9804
2124,5967,2984
2125,8829,8791
2126,159,3869
2127,7104,8511
2128,6722,9029
2129,701,7652
2130,7877,3171
2131,1184,3818
2132,4222,8855
2133,5519,3816
2134,5017,4791
2135,1837,8666
2136,5666,4063
2137,8979,7444
2138,2251,7132
2139,3200,4910
2140,7353,6239
2141,7769,1292
2142,4687,1685
2143,5267,6173
2144,5478,2745
2145,1689,79
2146,3203,7616
2147,6554,861
2148,7545,345
2149,1100,3365
2150,8701,6849
2151,6827,7093
2152,73,4599
2153,8429,2028
2154,4203,2974
2155,6703,7010
2156,1811,6440
2157,520,5022
2158,5271,9702
2159,9466,2432
2160,7326,2721
2161,4252,4415
2162,6497,2184
2163,9515,8525
2164,6816,3676
2165,5117,7828
2166,5860,9093
2167,3926,5777
2168,8937,1527
2169,4142,6008
2170,32,1450
2171,5109,166
2172,3632,1537
2173,474,9876
2174,5060,7902
2175,5821,729
2176,1897,198
2177,1056,6838
2178,9343,2644
2179,5916,339
2180,4706,3862
2181,3283,1420
2182,7246,6707
2183,3416,88
2184,2260,1053
2185,9652,3720
2186,6131,9688
2187,7078,5349
2188,622,3429
2189,4442,5663
2190,1953,5323
2191,6893,5391
2192,814,5006
2193,6955,4226
2194,4967,4460
2195,5957,7387
2196,2101,5923
2197,7756,956
2198,4771,4403
2199,4610,1265
2200,2341,9986
2201,378,1434
2202,2735,3518
2203,7794,4155
2204,9191,7124
2205,8186,49
2206,3051,3482
2207,4993,7470
2208,9287,162
2209,370,2858
2210,7303,5147
2211,3371,7408
2212,5085,5238
2213,3884,7665
2214,7875,1390
2215,5620,5087
2216,4369,5208
2217,3226,3947
2218,3929,5832
2219,69,7757
2220,7486,1007
2221,8684,3384
2222,5488,3611
2223,837,8781
2224,626,8294
2225,9936,4848
2226,987,3694
2227,3705,4868
2228,8497,2552
2229,5463,1046
2230,4289,1213
2231,8788,2396
2232,5318,3908
2233,575,2521
2234,3171,8035
2235,3607,5761
2236,9964,8073
2237,388,6600
2238,119,1295
2239,9883,8185
2240,8759,2784
2241,2735,7505
2242,2700,1049
2243,5589,601
2244,4841,9967
2245,5421,4526
2246,2138,4545
2247,5925,5770
2248,70,9455
2249,4071,5495
2250,2383,9517
2251,593,4513
2252,6760,3001
2253,7583,9585
2254,5266,5230
2255,5221,8560
2256,1315,3389
2257,3134,1816
2258,3187,951
2259,4489,8602
2260,2988,9351
2261,4947,9346
2262,581,6327
2263,5052,3901
2264,5739,541
2265,3061,2384
2266,1258,7075
2267,387,4586
2268,7877,828
2269,8519,9519
2270,1716,1935
2271,475,3188
2272,1824,8653
2273,6519,4997
2274,3644,5348
2275,9227,6382
2276,5832,3189
2277,9905,6640
2278,1023,1933
2279,2450,4739
2280,9038,7191
2281,2654,7704
2282,5204,3892
2283,2227,5150
2284,4500,7156
2285,3969,6216
2286,5425,3719
2287,1983,2652
2288,6121,3431
2289,5393,631
2290,9684,4161
2291,9490,5728
2292,1409,2534
2293,3100,3427
2294,1079,4283
2295,6981,9617
2296,4866,9715
2297,934,7833
2298,2935,5564
2299,5163,2826
2300,3203,2016
2301,7438,8594
2302,2404,6023
2303,7900,4550
2304,7714,9294
2305,31,1937
2306,2917,3137
2307,7277,123
2308,2255,6904
2309,7945,105
2310,643,8752
2311,9490,2821
2312,6670,2383
2313,4808,6643
2314,2000,6049
2315,9393,1438
2316,5972,3039
2317,9873,5404
2318,9788,8153
2319,50,4298
2320,3497,7191
2321,9330,8274
2322,5384,5230
2323,5578,8942
2324,3728,3000
2325,2549,7842
2326,5542,3769
2327,7356,5110
2328,7486,2818
2329,3815,4412
2330,4614,7462
2331,1230,5332
2332,6227,2955
2333,8138,1695
2334,3916,1768
2335,3809,1057
2336,9063,2529
2337,611,1297
2338,7830,2908
2339,4711,2436
2340,5312,3997
2341,8740,4510
2342,6251,7507
2343,7130,7898
2344,5123,7942
2345,7355,2298
2346,3685,5143
2347,5056,974
2348,1579,2350
2349,9014,1882
2350,2699,9320
2351,7956,9513
2352,2182,1925
2353,4562,5618
2354,6721,4316
2355,465,6632
2356,9380,5038
2357,4988,7623
2358,7251,1416
2359,4811,1372
2360,3911,6326
2361,8615,8292
2362,6914,4483
2363,168,4656
2364,53,2895
2365,9012,6212
2366,8363,5110
2367,2678,9506
2368,5486,477
2369,8375,7966
2370,7292,6776
2371,9427,3070
2372,4403,5506
2373,3423,3172
2374,9866,3012
2375,6135,162
2376,3041,8910
2377,5374,8952
2378,3614,9778
2379,2679,5609
2380,8627,3941
2381,567,1436
2382,1421,2402
2383,5641,2907
2384,6928,6173
2385,8869,5394
2386,1403,4275
2387,5721,8449
2388,4462,6616
2389,2301,8931
2390,7151,4167
2391,5812,877
2392,9145,7947
2393,2697,6547
2394,8315,4765
2395,3583,6233
2396,7854,7761
2397,7735,7623
2398,5348,5515
2399,3551,1127
2400,7514,72
2401,3709,2468
2402,8529,9892
2403,1636,4242
2404,1658,7659
2405,774,8123
2406,5860,1080
2407,7087,8873
2408,3827,4139
2409,1388,266
2410,6171,5437
2411,9969,5243
2412,9687,3888
2413,8001,7302
2414,6927,7228
2415,7737,6727
2416,4302,3964
2417,3949,5588
2418,2521,8785
2419,9669,6982
2420,6848,3604
2421,2624,7074
2422,8118,3633
2423,3304,8530
2424,2974,9731
2425,1487,3674
2426,833,2412
2427,6446,1807
2428,4474,806
2429,4353,4402
2430,2520,9409
2431,9057,919
2432,2354,6664
2433,513,5980
2434,2317,646
2435,4791,9445
2436,3733,912
2437,8891,6217
2438,4610,4620
2439,6892,1743
2440,1647,5138
2441,707,6949
2442,3557,6047
2443,5005,8323
2444,6842,8575
2445,3039,6803
2446,1462,6170
2447,6928,50
2448,4971,4909
2449,1090,3929
2450,2240,3469
2451,7931,2866
2452,2557,7847
2453,8437,8028
2454,8194,2940
2455,1999,4696
2456,8522,9508
2457,8561,854
2458,9631,2673
2459,8108,1388
2460,6598,6348
2461,5352,2889
2462,9281,3049
2463,5667,3186
2464,5131,8286
2465,234,7393
2466,874,1880
2467,326,7754
2468,7402,1479
2469,938,1268
2470,8398,9462
2471,9377,1563
2472,9524,9839
2473,7161,1606
2474,1905,8387
2475,2987,7640
2476,5434,5063
2477,5511,7918
2478,8357,9397
2479,2810,4262
2480,8234,7435
2481,1428,3192
2482,684,724
2483,4648,762
2484,9080,8612
2485,4376,1383
2486,4615,6374
2487,8128,4709
2488,5768,9886
2489,9904,8619
2490,3145,8252
2491,2211,7746
2492,4951,3971
2493,712,8163
2494,9135,1281
2495,833,5426
2496,524,2226
2497,8040,1738
2498,2897,8510
2499,6857,6527
2500,5316,5834
2501,9615,4524
2502,7071,4387
2503,8220,6736
2504,1306,3905
2505,9339,3377
2506,9819,1383
2507,3462,5554
2508,3168,8726
2509,2445,7243
2510,2932,9998
2511,1519,3929
2512,1852,9046
2513,8899,5751
2514,6301,1299
2515,9943,7688
2516,340,6792
2517,7632,1177
2518,1694,4678
2519,9214,8319
2520,6477,6889
2521,9945,2801
2522,465,1647
2523,6319,258
2524,8905,2973
2525,9288,375
2526,6723,3622
2527,5393,4443
2528,3299,2682
2529,573,4826
2530,3904,764
2531,4727,4089
2532,7470,2429
2533,3380,6570
2534,8162,5393
2535,7622,242
2536,8413,8504
2537,3519,8782
2538,8380,9889
2539,3465,3656
2540,2292,6237
2541,7418,2441
2542,5007,5526
2543,869,9772
2544,7601,8259
2545,763,9510
2546,5698,9228
2547,8077,131
2548,2513,8548
2549,3746,8194
2550,7238,4201
2551,2580,3090
2552,3065,5690
2553,524,8826
2554,9551,2725
2555,6819,7948
2556,9208,2775
2557,8302,8491
2558,9144,3960
2559,8111,2060
2560,6208,1192
2561,6734,9459
2562,2570,7805
2563,1030,511
2564,6996,7235
2565,7147,1861
2566,2194,6302
2567,775,9305
2568,6972,2085
2569,2906,9949
2570,4301,7257
2571,3975,5033
2572,6117,7002
2573,9462,6080
2574,2596,3863
2575,7903,1874
2576,6831,5702
2577,2876,1932
2578,5092,12
2579,6874,8207
2580,422,7051
2581,3611,1710
2582,5664,3583
2583,6673,1681
2584,2736,5598
2585,8499,7418
2586,2409,8624
2587,5195,9541
2588,3630,4795
2589,1651,4834
2590,2359,1465
2591,2722,6258
2592,7233,7280
2593,1790,1809
2594,7276,3538
2595,6920,7869
2596,1068,4765
2597,5048,7816
2598,5820,7085
2599,8588,2615
2600,2746,4883
2601,5136,5095
2602,5990,1399
2603,5516,77
2604,4842,3165
2605,1680,2911
2606,7444,2837
2607,7752,8021
2608,8827,9151
2609,2394,8552
2610,5501,6563
2611,3885,6813
2612,3808,7250
2613,8999,8089
2614,683,4474
2615,5726,4648
2616,216,7761
2617,1758,5359
2618,4833,5741
2619,8218,5113
2620,4642,9211
2621,8427,6672
2622,1547,6376
2623,654,4160
2624,210,8942
2625,7107,964
2626,2142,1417
2627,1134,682
2628,4248,4000
2629,9647,4446
2630,5256,4107
2631,3287,9875
2632,6059,2508
2633,7843,1829
2634,6717,9506
2635,1327,9894
2636,5071,6911
2637,6606,1556
2638,2921,7042
2639,6496,4171
2640,7535,1055
2641,9315,4523
2642,9784,1857
2643,902,3786
2644,7295,2769
2645,1785,7695
2646,9158,8360
2647,4915,9758
2648,5520,9337
2649,3378,3150
2650,3989,548
2651,9523,23
2652,408,8622
2653,245,6836
2654,5671,5448
2655,3931,5970
2656,279,6847
2657,2542,3714
2658,2768,6701
2659,2149,6793
2660,7345,6880
2661,4770,8901
2662,6936,2552
2663,9204,1170
2664,6034,9189
2665,1981,1813
2666,4210,1285
2667,646,7120
2668,5982,2487
2669,8106,467
2670,3413,2269
2671,6583,3169
2672,7757,2140
2673,9098,1745
2674,6546,4441
2675,1920,2105
2676,7745,2061
2677,6675,3812
2678,9806,7991
2679,4179,5498
2680,3567,1788
2681,7590,3944
2682,7023,3956
2683,4908,3886
2684,6186,1804
2685,2327,4480
2686,5944,410
2687,9074,8554
2688,27,8308
2689,9639,4895
2690,1024,6903
2691,1844,5839
2692,6380,270
2693,1,3105
2694,7382,9331
2695,139,503
2696,8521,5789
2697,5606,3717
2698,9245,6706
2699,6165,3808
2700,8212,6812
2701,2890,403
2702,9338,603
2703,7599,1632
2704,1154,3881
2705,2242,4645
2706,4568,5319
2707,9237,2100
2708,5512,6425
2709,7742,7578
2710,5525,3734
2711,4515,7225
2712,4663,4891
2713,5737,1524
2714,7937,1257
2715,2513,1596
2716,5496,766
2717,693,5308
2718,6512,7115
2719,4392,1790
2720,5557,4834
2721,7119,5542
2722,9059,6860
2723,4781,4450
2724,1882,542
2725,7668,8711
2726,4555,3158
2727,2532,6533
2728,8482,1612
2729,1337,7251
2730,5887,1539
2731,3357,3999
2732,9222,8852
2733,1217,8641
2734,9650,9268
2735,7510,558
2736,3061,3387
2737,7188,5426
2738,2826,8739
2739,5694,15
2740,1505,6534
2741,1660,683
2742,8125,1570
2743,2317,8265
2744,6643,3964
2745,6426,6905
2746,5907,8743
2747,7874,9385
2748,5486,8706
2749,3281,304
2750,9008,8458
2751,2008,3367
2752,1192,4120
2753,7358,7411
2754,7625,2327
2755,8976,2197
2756,3225,4697
2757,7890,3986
2758,4527,6129
2759,186,8568
2760,5243,3816
2761,4145,5891
2762,5649,7013
2763,3701,383
2764,2179,1627
2765,5004,7944
2766,641,2080
2767,4052,446
2768,8185,4242
2769,6323,8175
2770,7814,8717
2771,1738,4436
2772,8888,9694
2773,3436,5756
2774,1590,7153
2775,7209,8091
2776,8557,9628
2777,724,3300
2778,5194,348
2779,9588,2121
2780,7546,8891
2781,7009,7782
2782,7454,8018
2783,3773,8346
2784,1636,3977
2785,4387,1556
2786,5071,3711
2787,1809,5833
2788,9633,8643
2789,8370,5597
2790,9118,4691
2791,9809,5735
2792,1910,2359
2793,5171,5671
2794,696,8941
2795,5004,8082
2796,3028,3263
2797,9378,1770
2798,5191,1965
2799,6675,4388
2800,1598,4770
2801,1761,9100
2802,9163,7180
2803,8517,9141
2804,8296,8514
2805,929,1284
2806,7875,4380
2807,1381,2638
2808,2402,6192
2809,4351,2204
2810,8025,2610
2811,7939,7732
2812,2681,257
2813,9846,6861
2814,5656,3401
2815,2002,202
2816,7163,7913
2817,3259,151
2818,8178,9790
2819,2671,1170
2820,4025,4146
2821,8800,8448
2822,9690,4478
2823,7031,6396
2824,988,9418
2825,4756,1144
2826,7120,4460
2827,6866,3612
2828,6903,2514
2829,3694,8546
2830,9648,5920
2831,184,162
2832,6822,2020
2833,3761,8591
2834,5718,8892
2835,6274,170
2836,3509,8237
2837,6374,7090
2838,8319,8650
2839,7459,742
2840,1262,9845
2841,78,4280
2842,1622,5564
2843,6494,9770
2844,7190,1205
2845,9788,505
2846,5492,3742
2847,8837,9389
2848,4765,6859
2849,7571,3798
2850,9620,964
2851,6082,5069
2852,9039,8464
2853,1678,796
2854,9655,623
2855,9923,2030
2856,8197,4798
2857,303,6522
2858,9026,4073
2859,5616,8718
2860,9409,8812
2861,7920,5250
2862,9741,4593
2863,4491,5056
2864,7789,3076
2865,953,7456
2866,3824,6662
2867,793,797
2868,442,2104
2869,8619,1535
2870,4216,4091
2871,9320,6197
2872,1841,4471
2873,6176,6271
2874,5855,5142
2875,4452,4361
2876,9517,6474
2877,7608,8954
2878,7783,1420
2879,4472,1891
2880,8460,173
2881,6663,7935
2882,7897,6067
2883,3967,5403
2884,6587,7999
2885,4957,7589
2886,7972,2559
2887,8674,2589
2888,309,782
2889,5978,8071
2890,2178,5858
2891,4381,30
2892,7674,5817
2893,7559,7010
2894,4606,8706
2895,3795,2287
2896,8488,1257
2897,8902,9720
2898,2285,1334
2899,2802,5816
2900,5856,6151
2901,8223,3383
2902,9643,2243
2903,1389,3255
2904,6885,469
2905,4731,9751
2906,8610,4861
2907,2296,9640
2908,5847,3914
2909,2922,9237
2910,3740,7621
2911,5832,3692
2912,5733,1290
2913,4390,6556
2914,163,5719
2915,4994,5409
2916,3773,1408
2917,1819,9775
2918,4495,2966
2919,8745,160
2920,2599,6271
2921,3790,8932
2922,9476,4908
2923,329,8829
2924,7545,3503
2925,5241,5644
2926,8045,7948
2927,6236,1271
2928,1161,5027
2929,8042,3010
2930,214,7049
2931,5225,4668
2932,307,1565
2933,4967,8613
2934,7316,6064
2935,4313,3490
2936,2269,2162
2937,3992,7647
2938,4424,3129
2939,8137,3888
2940,1286,4839
2941,2706,9791
2942,9535,8968
2943,2163,1911
2944,6395,9670
2945,2482,7067
2946,886,9452
2947,8436,5133
2948,1216,9428
2949,1605,2089
2950,3696,9164
2951,8019,7032
2952,5901,839
2953,4455,950
2954,774,5636
2955,9380,2094
2956,7379,4568
2957,5418,7844
2958,8596,6746
2959,1758,4505
2960,4378,2073
2961,6501,7500
2962,6706,2927
2963,6380,4222
2964,1124,423
2965,277,8641
2966,4421,1809
2967,4091,510
2968,5035,6881
2969,4646,7000
2970,6845,6765
2971,1716,7140
2972,436,9131
2973,6003,7176
2974,1350,9281
2975,2410,9068
2976,5385,724
2977,1752,3642
2978,6290,1285
2979,8279,9374
2980,9486,8928
2981,5110,2297
2982,716,6575
2983,9537,5338
2984,8451,1782
2985,5382,9965
2986,2480,1145
2987,8925,5522
2988,5825,6039
2989,8736,9228
2990,6709,9036
2991,9400,6583
2992,258,3700
2993,3831,8590
2994,2943,5932
2995,1148,2149
2996,1556,5493
2997,5526,2014
2998,1113,5767
2999,6703,4321
3000,6392,4902
3001,7820,8553
3002,6037,4170
3003,1439,7361
3004,9426,7236
3005,7517,6059
3006,7912,8881
3007,4662,8709
3008,7138,233
3009,3426,4586
3010,9280,6128
3011,4158,5967
3012,5031,4071
3013,7752,7817
3014,5706,7876
3015,8350,4434
3016,9406,4292
3017,4221,2262
3018,1120,4689
3019,3119,8484
3020,2496,6261
3021,1705,2749
3022,4757,8152
3023,2552,5686
3024,8465,1795
3025,2065,4755
3026,4741,757
3027,3671,3728
3028,3223,7082
3029,8249,7202
3030,5031,9908
3031,9901,8427
3032,2447,603
3033,4946,8755
3034,4158,8705
3035,1125,5340
3036,6957,8914
3037,9412,674
3038,2836,3393
3039,4550,6704
3040,3186,1498
3041,2439,7749
3042,5210,9976
3043,8551,4977
3044,773,5566
3045,7872,9054
3046,8119,827
3047,7484,4601
3048,3570,5790
3049,6730,2926
3050,8371,3918
3051,2484,2922
3052,3655,1372
3053,1624,4607
3054,6821,225
3055,8076,8154
3056,4765,8755
3057,626,4872
3058,7288,9244
3059,915,7844
3060,2888,3213
3061,6667,6476
3062,9669,260
3063,9703,3630
3064,7081,8759
3065,8867,4594
3066,4066,8814
3067,9562,8542
3068,640,1671
3069,330,9559
3070,5241,2677
3071,3655,2045
3072,9218,9940
3073,6609,7772
3074,116,1611
3075,157,4871
3076,9713,3393
3077,914,8350
3078,9782,4492
3079,7804,9430
3080,6024,9460
3081,2491,4950
3082,2295,4131
3083,9144,4017
3084,1112,2
3085,7990,207
3086,9157,4687
3087,7478,644
3088,7628,3943
3089,7779,1442
3090,5198,3670
3091,5668,5855
3092,6355,7675
3093,2264,3235
3094,7928,7825
3095,7341,8016
3096,4050,573
3097,4807,2845
3098,4636,696
3099,6426,9820
3100,3567,4937
3101,3863,2959
3102,2762,5356
3103,6952,6816
3104,6005,2767
3105,36,6283
3106,151,5011
3107,7797,670
3108,2818,7573
3109,3621,3
3110,9031,4312
3111,7264,6620
3112,2836,8278
3113,8815,175
3114,1500,9903
3115,4934,6724
3116,328,612
3117,7747,8868
3118,6393,3356
3119,9319,7601
3120,9194,2460
3121,5046,6
3122,7952,5448
3123,7168,6937
3124,2591,2292
3125,7670,4948
3126,7529,7188
3127,6375,7267
3128,7042,7075
3129,379,1373
3130,3247,6573
3131,6578,749
3132,7835,5824
3133,2049,4091
3134,6875,6986
3135,8564,7988
3136,2463,993
3137,4491,1441
3138,4792,4870
3139,2114,8606
3140,6358,6862
3141,7078,2626
3142,504,4765
3143,1771,1863
3144,3590,3415
3145,1415,9530
3146,1696,9851
3147,6308,4480
3148,5967,7740
3149,1389,6449
3150,8876,3669
3151,8060,4510
3152,2881,64
3153,9694,1275
3154,5950,1841
3155,6793,4685
3156,2482,7064
3157,7896,2349
3158,3164,9489
3159,9747,5192
3160,6563,4118
3161,3127,4806
3162,4738,9721
3163,5362,2262
3164,2263,1607
3165,6295,5950
3166,7348,978
3167,1619,4680
3168,340,7687
3169,2892,104
3170,520,3303
3171,3478,8181
3172,6686,3860
3173,8673,4094
3174,8960,3350
3175,5116,663
3176,8151,4439
3177,6847,7962
3178,1786,2565
3179,8966,5391
3180,3277,7790
3181,5249,8974
3182,295,6452
3183,6212,3614
3184,1856,2633
3185,2351,624
3186,8202,4676
3187,298,1950
3188,3163,7424
3189,2785,4787
3190,6405,2463
3191,6831,1606
3192,1813,7803
3193,1683,7204
3194,6956,6384
3195,4295,4516
3196,7108,9173
3197,6072,5059
3198,8012,2709
3199,9359,5373
3200,1212,8435
3201,6986,9510
3202,7146,7796
3203,8711,4913
3204,9096,1897
3205,7678,8739
3206,2418,23
3207,1415,2012
3208,5453,6801
3209,6959,9646
3210,5808,1362
3211,3326,8019
3212,4553,7883
3213,9379,2376
3214,9825,8728
3215,9592,9074
3216,1586,9772
3217,6872,7528
3218,8674,3737
3219,1641,5077
3220,3412,4914
3221,3602,9548
3222,2950,5710
3223,7781,8816
3224,4562,2732
3225,1551,9744
3226,2928,1
3227,3966,5300
3228,9598,9760
3229,8564,3426
3230,7621,6045
3231,4432,2118
3232,4214,8495
3233,7893,5006
3234,7996,4227
3235,1816,5294
3236,8767,5595
3237,5436,1193
3238,1635,4879
3239,674,3834
3240,6428,1514
3241,4973,1041
3242,2681,6738
3243,5426,8546
3244,5711,2676
3245,2704,3945
3246,7910,2415
3247,954,5440
3248,561,9940
3249,1935,2933
3250,4748,6689
3251,5067,1264
3252,1259,8187
3253,5686,5944
3254,6251,9348
3255,6606,1741
3256,5235,7656
3257,3086,409
3258,361,965
3259,5756,872
3260,2907,7398
3261,3947,9505
3262,1955,2641
3263,6736,3514
3264,4802,9663
3265,7952,8933
3266,1222,3247
3267,7305,2311
3268,8242,9260
3269,5334,6472
3270,7565,2036
3271,1004,5634
3272,1134,8442
3273,8541,1979
3274,1547,8055
3275,4536,9064
3276,3464,6064
3277,8848,4715
3278,7075,1982
3279,7461,1021
3280,7943,2626
3281,5079,1841
3282,8930,9887
3283,1941,5674
3284,7207,4962
3285,9672,7508
3286,9864,8857
3287,9714,6905
3288,8509,6729
3289,42,3093
3290,7340,8977
3291,3518,5046
3292,3541,4128
3293,5910,5461
3294,559,8320
3295,874,7959
3296,7867,9050
3297,746,6380
3298,3212,9430
3299,1157,5586
3300,1489,1693
3301,7185,6819
3302,642,6301
3303,5908,9112
3304,6892,2881
3305,6240,1480
3306,4544,9502
3307,7421,5435
3308,9287,1404
3309,3181,4916
3310,2248,6253
3311,5515,7994
3312,4218,5812
3313,5805,8311
3314,3616,6463
3315,3904,2187
3316,7575,8471
3317,7784,5883
3318,67,5792
3319,3979,5737
3320,7318,205
3321,7907,9725
3322,1547,1202
3323,511,379
3324,7794,354
3325,1202,9308
3326,7188,8854
3327,3586,5149
3328,5102,7710
3329,8308,8176
3330,4409,658
3331,8489,4858
3332,6620,8270
3333,641,1504
3334,6699,9032
3335,6859,8219
3336,6487,2624
3337,1128,5586
3338,8966,2336
3339,4096,5720
3340,303,4319
3341,3860,5513
3342,2638,9710
3343,4210,5810
3344,1318,9632
3345,6307,9967
3346,7662,9474
3347,7912,6835
3348,1795,4808
3349,8105,9475
3350,4777,2623
3351,3945,9736
3352,8254,9067
3353,3338,8451
3354,3933,9655
3355,1671,3749
3356,8440,8834
3357,2672,3499
3358,5582,7443
3359,6170,5781
3360,9740,3050
3361,7624,978
3362,4385,9712
3363,1801,6937
3364,2761,6654
3365,8335,8064
3366,6453,2277
3367,4366,4695
3368,8860,8405
3369,3630,5650
3370,4331,7710
3371,3885,2254
3372,7375,9439
3373,7222,7198
3374,1423,6496
3375,4122,7763
3376,420,9907
3377,5431,9907
3378,9476,8757
3379,8130,1628
3380,6909,1273
3381,5479,4214
3382,1546,6595
3383,3855,1885
3384,1469,3974
3385,8109,1123
3386,1226,8874
3387,7674,7633
3388,7557,7903
3389,5456,2862
3390,5124,2582
3391,1200,3928
3392,7839,818
3393,6492,7104
3394,3003,7345
3395,2157,3522
3396,1404,1083
3397,8038,6656
3398,4345,9095
3399,7020,7911
3400,57,8055
3401,4094,2226
3402,8608,9130
3403,2825,6749
3404,8253,4275
3405,5495,1102
3406,9476,2378
3407,1621,6691
3408,6817,8740
3409,6503,7815
3410,7840,1351
3411,10000,1181
3412,3144,2323
3413,4851,6117
3414,2157,4798
3415,2096,825
3416,720,7163
3417,1889,3761
3418,6821,178
3419,7752,3245
3420,7778,308
3421,7781,1941
3422,5974,8569
3423,3816,964
3424,8631,2717
3425,1094,9800
3426,191,635
3427,3994,2096
3428,5673,1852
3429,2198,4503
3430,4472,8275
3431,6178,8959
3432,9042,819
3433,8280,5298
3434,3793,6660
3435,6988,9310
3436,539,5510
3437,3926,2657
3438,5137,6436
3439,107,8609
3440,4033,9129
3441,1113,7919
3442,8016,1128
3443,1642,9026
3444,7561,8003
3445,3151,1396
3446,5806,2986
3447,1032,7134
3448,2813,8352
3449,757,5882
3450,6059,1332
3451,322,9647
3452,180,7807
3453,3664,1707
3454,2798,8277
3455,1008,6817
3456,3717,4146
3457,7253,6667
3458,6058,3265
3459,499,6782
3460,6839,2833
3461,8184,3405
3462,6114,5870
3463,8556,4712
3464,2209,3386
3465,1976,347
3466,6067,6292
3467,9564,2116
3468,6330,3852
3469,9484,1301
3470,59,8490
3471,9528,6193
3472,2109,5943
3473,8759,75
3474,8306,81
3475,5785,9664
3476,2833,6330
3477,7945,1033
3478,2032,4562
3479,8058,6476
3480,4592,4066
3481,7596,493
3482,5478,1213
3483,8237,1604
3484,1463,4144
3485,7474,46
3486,7381,8557
3487,8954,3567
3488,3771,7445
3489,7041,8140
3490,1748,9537
3491,76,8199
3492,3718,5634
3493,4759,6112
3494,549,7296
3495,3491,365
3496,4318,7753
3497,5595,3922
3498,9747,6204
3499,2647,4772
3500,4347,8979
3501,7675,7031
3502,1456,5952
3503,4756,7456
3504,6253,5434
3505,3101,2427
3506,4128,8167
3507,3250,5853
3508,9133,6564
3509,7961,7642
3510,5892,7880
3511,1069,2311
3512,8202,9880
3513,9603,1613
3514,5399,6271
3515,8804,3071
3516,3020,1388
3517,8544,6393
3518,9222,7375
3519,6710,5299
3520,8905,2890
3521,6462,3607
3522,9946,5527
3523,4438,4878
3524,7016,4308
3525,2725,6557
3526,2714,4585
3527,327,1064
3528,6114,8820
3529,8726,1642
3530,8830,1365
3531,7033,4808
3532,1063,7656
3533,2694,8121
3534,3956,5982
3535,4251,6606
3536,8190,160
3537,8319,2993
3538,5097,9671
3539,3347,431
3540,4105,1562
3541,1871,4880
3542,9462,9205
3543,860,4273
3544,7364,2511
3545,7474,8640
3546,745,7455
3547,8356,9984
3548,2311,763
3549,7152,9870
3550,3952,4293
3551,3661,31
3552,4825,6050
3553,3502,4327
3554,2774,3705
3555,652,6871
3556,6729,8125
3557,247,4953
3558,1857,4744
3559,7538,1514
3560,5481,4232
3561,3754,4298
3562,1762,5557
3563,1227,8294
3564,191,8773
3565,295,3188
3566,5948,7205
3567,2112,8941
3568,7407,3263
3569,6969,2597
3570,563,9225
3571,7397,9094
3572,7579,1835
3573,8613,7453
3574,6912,3280
3575,5399,8771
3576,2881,4121
3577,397,5919
3578,3080,141
3579,9221,5286
3580,1537,5778
3581,5648,130
3582,433,8059
3583,5481,5077
3584,2659,3567
3585,3917,8101
3586,8513,1874
3587,6360,4755
3588,9273,3905
3589,9176,8944
3590,1055,5249
3591,4539,3232
3592,138,7351
3593,9045,1968
3594,330,6474
3595,45,9634
3596,6838,8905
3597,7481,2770
3598,5880,4859
3599,6203,8246
3600,6453,5043
3601,7398,9246
3602,5325,6781
3603,4809,6701
3604,4922,5168
3605,2393,7666
3606,8440,4932
3607,4893,55
3608,634,206
3609,21,8386
3610,1330,995
3611,2725,6608
3612,5163,9160
3613,299,1202
3614,2267,1211
3615,7399,5112
3616,9213,8674
3617,6575,9688
3618,777,4113
3619,5143,2892
3620,3171,1982
3621,2872,2485
3622,2565,9940
3623,9717,3149
3624,9787,9052
3625,7502,7481
3626,3888,8830
3627,1447,2984
3628,1758,4639
3629,4873,5105
3630,2640,2956
3631,637,803
3632,8919,1682
3633,3695,3388
3634,8136,5125
3635,2480,1187
3636,5736,393
3637,4571,1037
3638,7644,8789
3639,9620,6778
3640,7147,9812
3641,7374,5908
3642,5230,8076
3643,9954,7077
3644,6844,215
3645,1613,532
3646,9113,1817
3647,2161,1181
3648,2323,3656
3649,1702,9202
3650,4350,8679
3651,6617,8141
3652,2463,8286
3653,8146,5116
3654,5015,1504
3655,8277,8960
3656,8249,5557
3657,9451,9497
3658,8088,1440
3659,3785,6485
3660,6306,7079
3661,5706,1880
3662,1226,2886
3663,9988,7435
3664,2152,1108
3665,5635,2048
3666,6842,2700
3667,1655,4843
3668,3261,4609
3669,541,4457
3670,9917,5306
3671,3946,4127
3672,8765,8887
3673,1895,6521
3674,8714,3833
3675,9492,9032
3676,5979,8455
3677,9084,6274
3678,6207,1477
3679,7992,8225
3680,6608,4185
3681,2586,7117
3682,3771,6187
3683,1957,6130
3684,1271,6485
3685,1806,6638
3686,303,762
3687,4108,8435
3688,5057,8669
3689,8021,6627
3690,7755,8630
3691,5267,6547
3692,7699,8326
3693,7340,2177
3694,51,9215
3695,6579,2308
3696,6253,4199
3697,3248,7954
3698,1921,1630
3699,3538,6518
3700,4890,8099
3701,5826,7480
3702,2812,5367
3703,7156,1355
3704,2991,4220
3705,2597,37
3706,4081,8231
3707,2794,8505
3708,5008,8076
3709,7591,7557
3710,2235,1925
3711,3502,5283
3712,5542,7673
3713,2312,5281
3714,4992,3161
3715,3261,8786
3716,6526,8598
3717,9695,3315
3718,9319,5094
3719,6304,3049
3720,1208,8700
3721,9057,7625
3722,1526,9574
3723,5659,9085
3724,7514,5508
3725,7404,7871
3726,4580,7435
3727,9357,7896
3728,9113,4572
3729,5256,5280
3730,6169,5763
3731,4890,3872
3732,859,4569
3733,1979,4281
3734,4130,9716
3735,2679,9747
3736,4134,4381
3737,9820,7877
3738,1702,303
3739,8536,4362
3740,3024,2865
3741,9787,6698
3742,430,2917
3743,4469,7410
3744,680,8070
3745,9438,1865
3746,531,5481
3747,7065,4879
3748,2720,7651
3749,9104,9678
3750,2110,9966
3751,6585,1766
3752,8404,7274
3753,814,6331
3754,3476,2149
3755,4603,2047
3756,6354,5879
3757,9466,117
3758,8775,5951
3759,1017,5431
3760,3557,7691
3761,1807,9980
3762,1961,9622
3763,8808,5719
3764,221,7472
3765,5262,3359
3766,980,3543
3767,9529,5770
3768,6359,5419
3769,7914,9198
3770,9688,929
3771,5663,8075
3772,8738,3486
3773,4410,7003
3774,3729,5898
3775,9221,2978
3776,9067,2632
3777,7318,9910
3778,165,8698
3779,3190,8875
3780,3458,8028
3781,3225,9309
3782,4248,7630
3783,2366,1779
3784,6597,7120
3785,6407,4073
3786,9158,9324
3787,6457,654
3788,3784,1241
3789,4603,8242
3790,3219,1398
3791,709,7322
3792,7859,1451
3793,4265,9644
3794,7684,3435
3795,8092,5112
3796,5935,20
3797,5970,6273
3798,2450,2083
3799,6679,1390
3800,7237,3203
3801,1727,9123
3802,612,200
3803,1168,3321
3804,4462,2611
3805,1820,5837
3806,9147,5151
3807,10,5631
3808,4680,4225
3809,1668,5246
3810,9288,7590
3811,3358,2257
3812,205,9547
3813,2036,9094
3814,4338,5057
3815,7291,7612
3816,8490,5870
3817,8671,2225
3818,3692,4464
3819,6236,5122
3820,4336,7991
3821,3005,3167
3822,5398,1584
3823,5039,4627
3824,8337,8930
3825,3208,4703
3826,4192,6072
3827,3481,3887
3828,7684,159
3829,7149,6859
3830,2222,8690
3831,4704,3608
3832,6364,5561
3833,5663,8734
3834,2238,5467
3835,5290,7195
3836,6898,5101
3837,8083,1699
3838,7049,78
3839,2359,8193
3840,4002,6366
3841,9041,1288
3842,2240,3850
3843,3735,835
3844,2445,4363
3845,5994,4530
3846,9174,5744
3847,4007,8995
3848,4429,2992
3849,7130,6805
3850,7849,6715
3851,5852,861
3852,5064,1489
3853,8467,8191
3854,7078,6712
3855,3002,4775
3856,8681,4273
3857,5498,167
3858,1377,6084
3859,5520,3086
3860,6724,789
3861,4617,5463
3862,6818,8250
3863,9621,1065
3864,863,1618
3865,7352,9324
3866,7900,6227
3867,1948,2373
3868,3226,7588
3869,5758,2064
3870,9146,478
3871,3907,6551
3872,5002,1259
3873,7197,9209
3874,1346,4829
3875,8121,5326
3876,1203,5316
3877,9561,5245
3878,2875,7199
3879,8374,9724
3880,8573,9467
3881,5796,9004
3882,815,8999
3883,7693,4090
3884,6971,2463
3885,8125,9117
3886,5658,659
3887,9787,8170
3888,1317,9861
3889,4878,4777
3890,5492,7704
3891,1789,203
3892,9234,8193
3893,3731,9249
3894,5628,250
3895,6602,7310
3896,8152,729
3897,731,3783
3898,6541,1170
3899,9347,1910
3900,1851,4833
3901,488,5278
3902,5947,3087
3903,229,2027
3904,9023,694
3905,5595,9498
3906,5451,2405
3907,4716,3220
3908,5941,938
3909,9719,6201
3910,7446,971
3911,2158,5780
3912,8382,4190
3913,3369,371
3914,6051,4553
3915,7893,1673
3916,1580,9973
3917,9665,7302
3918,3788,4898
3919,222,9398
3920,5310,2804
3921,8542,6917
3922,6507,274
3923,1534,204
3924,156,8229
3925,9272,5803
3926,4019,6540
3927,8579,122
3928,6984,6947
3929,3277,7861
3930,7832,9334
3931,3887,7249
3932,6302,2249
3933,5653,4455
3934,6030,1914
3935,8291,3233
3936,87,7694
3937,5384,342
3938,7239,2240
3939,8578,2894
3940,3291,2193
3941,2305,2303
3942,7924,8376
3943,4444,5970
3944,7403,1317
3945,1501,5817
3946,7856,9977
3947,4393,2820
3948,2035,7256
3949,7663,5080
3950,3416,5094
3951,4709,9819
3952,8265,8089
3953,8165,7344
3954,7675,4504
3955,6810,9039
3956,5240,3250
3957,6350,9408
3958,5762,9678
3959,9101,2113
3960,1067,6363
3961,2739,3486
3962,6855,8313
3963,6548,7753
3964,9525,883
3965,4924,271
3966,8845,28
3967,379,5189
3968,7249,5795
3969,8163,2688
3970,728,9887
3971,2650,7238
3972,4938,9601
3973,2402,6293
3974,6717,1489
3975,3952,7938
3976,2798,156
3977,8809,9035
3978,7665,6836
3979,5201,3245
3980,4272,2381
3981,9097,313
3982,1661,5934
3983,7854,909
3984,5967,4096
3985,2409,5273
3986,408,2850
3987,4640,9531
3988,5691,3689
3989,4231,7379
3990,9082,1740
3991,978,3373
3992,300,3160
3993,3620,798
3994,7752,810
3995,9973,6736
3996,1545,8915
3997,4528,9236
3998,5222,3376
3999,2394,8738
4000,9359,7960
4001,8777,151
4002,4937,4584
4003,6584,2413
4004,9837,2960
4005,2835,7371
4006,6288,2063
4007,7456,5993
4008,5610,4681
4009,9650,8326
4010,4115,8443
4011,1913,8616
4012,554,4158
4013,2132,671
4014,9392,1233
4015,6102,7601
4016,10000,1696
4017,9164,1977
4018,8531,8033
4019,1142,7913
4020,9806,4856
4021,388,5554
4022,3229,834
4023,127,8425
4024,1110,975
4025,4464,1291
4026,9450,8152
4027,6621,7236
4028,4066,2481
4029,2406,7737
4030,913,4653
4031,8166,8560
4032,102,8598
4033,3221,8316
4034,3537,7082
4035,9200,6309
4036,5024,8218
4037,3728,4379
4038,9947,1148
4039,5535,7724
4040,5268,1639
4041,9469,5785
4042,9869,9757
4043,9036,2844
4044,9508,7509
4045,145,3376
4046,2721,6074
4047,1669,7300
4048,1816,482
4049,5583,8431
4050,7083,6225
4051,5360,9897
4052,2933,5453
4053,6339,8756
4054,6102,9124
4055,3577,6429
4056,6251,4309
4057,6023,3890
4058,3606,4501
4059,5645,4862
4060,6659,1083
4061,2610,4418
4062,423,5945
4063,2264,4487
4064,4634,6630
4065,136,6054
4066,7642,3413
4067,6106,9840
4068,6682,9377
4069,6058,2116
4070,8181,1105
4071,158,7231
4072,3640,6721
4073,8780,4060
4074,7428,2409
4075,3002,3612
4076,4439,2714
4077,184,1182
4078,5807,2282
4079,1566,9660
4080,1768,8886
4081,2102,8899
4082,5147,2853
4083,8541,8078
4084,702,8109
4085,3912,7770
4086,4985,5764
4087,9860,6231
4088,9940,8553
4089,1527,6242
4090,3904,8816
4091,6885,4038
4092,6603,8290
4093,2918,2315
4094,7406,8547
4095,5614,5600
4096,8673,8643
4097,1898,9339
4098,4154,478
4099,4700,980
4100,1135,3108
4101,3281,6197
4102,7186,7060
4103,6282,8484
4104,3042,9411
4105,1265,4230
4106,2277,8032
4107,9051,7506
4108,9806,919
4109,7380,4986
4110,2806,8278
4111,9300,1455
4112,9966,7256
4113,3666,3850
4114,1450,1566
4115,8850,8841
4116,1969,2208
4117,3205,2841
4118,9201,6021
4119,5187,3197
4120,8294,7855
4121,2918,7063
4122,402,4455
4123,612,2172
4124,4433,1248
4125,3318,6098
4126,3209,1105
4127,1655,5527
4128,9988,1845
4129,72,4826
4130,1577,8145
4131,5979,1632
4132,2661,4355
4133,4351,6545
4134,1427,47
4135,6728,2332
4136,8047,6621
4137,8786,3192
4138,6158,4603
4139,716,7318
4140,1754,4335
4141,477,4250
4142,8520,6801
4143,1793,2292
4144,893,6861
4145,6030,1153
4146,8040,5585
4147,3670,9378
4148,7651,8566
4149,3294,3091
4150,6472,9448
4151,2044,7601
4152,308,6576
4153,7858,4968
4154,5185,7896
4155,9828,9112
4156,5247,1062
4157,6991,1665
4158,1889,4304
4159,8630,1998
4160,460,8476
4161,8504,3483
4162,6699,432
4163,9463,7997
4164,9380,9415
4165,5745,682
4166,5300,2232
4167,5770,1878
4168,8171,1539
4169,5031,8281
4170,2002,8950
4171,2173,4865
4172,9169,1027
4173,416,8879
4174,7316,1909
4175,6592,8696
4176,2885,8954
4177,7979,6620
4178,1532,8841
4179,487,7583
4180,5438,8959
4181,2468,4841
4182,5763,4079
4183,7618,5001
4184,3163,2695
4185,4563,1650
4186,6014,4972
4187,9898,4362
4188,4860,5983
4189,9311,7071
4190,1385,6805
4191,9002,7374
4192,5048,6110
4193,6426,6219
4194,3315,1028
4195,1859,3902
4196,5858,1701
4197,8949,4571
4198,6499,6472
4199,8063,6889
4200,6237,9433
4201,275,2245
4202,533,4827
4203,5597,3746
4204,9535,9350
4205,6894,570
4206,8090,780
4207,7341,6640
4208,1992,4505
4209,434,6012
4210,9660,9938
4211,1771,7743
4212,9931,5822
4213,4169,8287
4214,4077,7533
4215,3043,693
4216,4303,2190
4217,2957,4401
4218,5169,2820
4219,7639,141
4220,2677,3263
4221,2378,8256
4222,1884,2176
4223,7717,9486
4224,1616,4395
4225,8322,7183
4226,5356,8898
4227,7341,8492
4228,4483,7993
4229,9153,8490
4230,1276,1169
4231,6767,3231
4232,336,7928
4233,7881,8449
4234,7565,6501
4235,7928,3288
4236,544,8013
4237,3580,7000
4238,9321,2609
4239,9269,8713
4240,5826,4019
4241,6272,2316
4242,3641,7787
4243,9839,4018
4244,1638,8027
4245,2162,9808
4246,247,2395
4247,974,1506
4248,7081,8152
4249,3256,8631
4250,1855,8545
4251,107,6681
4252,4534,8616
4253,767,1954
4254,9988,8912
4255,6479,103
4256,9625,1857
4257,6121,3672
4258,3875,3439
4259,6259,733
4260,1954,6475
4261,3364,2413
4262,8059,4221
4263,9354,9689
4264,1851,1853
4265,4790,9604
4266,165,4793
4267,2381,3582
4268,2393,6546
4269,9596,9281
4270,3807,5802
4271,1247,5984
4272,9730,8274
4273,9507,6373
4274,3187,7638
4275,9182,4641
4276,9398,1438
4277,7126,898
4278,4085,4680
4279,3588,4640
4280,1007,5612
4281,700,5754
4282,3348,8824
4283,8295,6789
4284,6766,9670
4285,8951,5406
4286,9304,8203
4287,8271,8849
4288,9,8301
4289,3949,4610
4290,7534,2772
4291,7054,7787
4292,6933,1739
4293,6636,720
4294,3820,820
4295,8520,3574
4296,2771,6970
4297,812,3734
4298,9578,3357
4299,7712,7227
4300,997,4930
4301,7970,8457
4302,6054,7329
4303,1050,8292
4304,3377,3120
4305,522,2112
4306,2496,9621
4307,5380,3355
4308,7691,5476
4309,4612,716
4310,4369,6760
4311,9844,5774
4312,5576,5863
4313,7372,4808
4314,9002,6906
4315,532,7920
4316,4169,5181
4317,7012,5983
4318,867,2363
4319,5537,9302
4320,3234,460
4321,8717,8215
4322,4809,770
4323,5723,1526
4324,3411,5376
4325,8790,8816
4326,9850,3964
4327,2440,5818
4328,8080,4167
4329,4335,4151
4330,2078,5062
4331,7685,705
4332,3661,2562
4333,9926,849
4334,2365,6777
4335,8565,4081
4336,763,8557
4337,5400,5073
4338,4314,4512
4339,4964,5052
4340,212,7031
4341,8962,1624
4342,4533,4575
4343,5915,8250
4344,6086,3015
4345,497,6874
4346,3384,599
4347,756,8844
4348,4388,9386
4349,4276,6109
4350,8691,4061
4351,498,3550
4352,5956,5704
4353,3006,7709
4354,6563,6977
4355,4555,5796
4356,1265,2289
4357,3922,7074
4358,1151,6206
4359,9388,6837
4360,7798,4376
4361,3806,8560
4362,196,8098
4363,4808,165
4364,214,127
4365,1376,2258
4366,2016,9708
4367,8473,1825
4368,8129,2731
4369,6457,5393
4370,6399,8085
4371,429,8048
4372,4756,1088
4373,1769,5480
4374,5233,128
4375,910,4242
4376,7242,4557
4377,5610,2303
4378,6248,7891
4379,7956,3789
4380,244,5607
4381,6994,6347
4382,6817,8517
4383,7978,6262
4384,9273,6679
4385,8725,8763
4386,4739,8761
4387,1293,9471
4388,532,4234
4389,5374,8456
4390,5193,1600
4391,4300,3563
4392,1792,8873
4393,4849,1938
4394,1569,4299
4395,4734,6534
4396,4868,5685
4397,5070,5401
4398,8226,4021
4399,9172,8203
4400,6285,5146
4401,2418,2425
4402,2392,6704
4403,8303,7735
4404,4348,2306
4405,7141,1419
4406,2351,1567
4407,8387,1078
4408,2871,2411
4409,312,2972
4410,9384,7987
4411,4774,2258
4412,845,2929
4413,8021,1368
4414,7697,7471
4415,3173,861
4416,1129,637
4417,864,5371
4418,1315,4643
4419,7985,5072
4420,8607,3386
4421,9131,2443
4422,8764,3392
4423,364,7872
4424,812,327
4425,8398,5768
4426,1797,7080
4427,2706,7773
4428,9772,3825
4429,1540,466
4430,8867,7239
4431,8181,6065
4432,9675,4405
4433,9119,6666
4434,8242,2326
4435,6917,7905
4436,191,7415
4437,5780,7962
4438,3647,731
4439,6670,6384
4440,315,7666
4441,6657,5148
4442,6547,2577
4443,2253,8032
4444,6896,2944
4445,7642,6779
4446,6194,594
4447,1999,417
4448,3275,4149
4449,5497,2772
4450,4039,5585
4451,7806,5695
4452,7592,269
4453,9958,2493
4454,3141,1689
4455,3648,3390
4456,437,5375
4457,9264,6409
4458,2668,6960
4459,3536,4386
4460,820,3849
4461,2881,1595
4462,7194,3409
4463,9555,3579
4464,8724,6082
4465,9027,1159
4466,3024,4194
4467,527,9681
4468,3257,8501
4469,4487,8064
4470,6356,7555
4471,430,94
4472,7750,2882
4473,9419,2796
4474,6408,1336
4475,2396,5113
4476,377,9586
4477,4915,7882
4478,6785,9358
4479,77,6676
4480,9454,4726
4481,3710,3636
4482,7597,8809
4483,490,5687
4484,587,8949
4485,5452,3298
4486,1106,3661
4487,45,5779
4488,6084,4241
4489,3334,2602
4490,4589,7988
4491,1696,4214
4492,1756,5595
4493,7259,7323
4494,3144,4413
4495,873,2499
4496,5505,1443
4497,3961,6445
4498,682,5219
4499,2250,2734
4500,768,1049
4501,9757,2538
4502,4954,9913
4503,1793,9586
4504,2417,142
4505,6343,4769
4506,6891,2868
4507,7604,3164
4508,7672,6341
4509,4313,1195
4510,8283,3555
4511,6947,1816
4512,9138,4076
4513,9623,7926
4514,7344,3756
4515,5703,1189
4516,7496,4187
4517,543,5175
4518,2804,5232
4519,6395,5479
4520,2679,7443
4521,7039,4925
4522,2442,4946
4523,4538,9642
4524,8030,4257
4525,3407,524
4526,7372,8316
4527,197,4164
4528,6208,8581
4529,3184,4021
4530,4301,6835
4531,8044,6595
4532,7889,1218
4533,2082,956
4534,2902,4396
4535,3056,635
4536,2588,8187
4537,796,4765
4538,7078,5893
4539,983,2224
4540,5262,1893
4541,8898,8723
4542,5281,7320
4543,4629,5089
4544,7374,4005
4545,3892,3019
4546,504,5264
4547,685,6922
4548,1310,6516
4549,1453,3074
4550,8898,3778
4551,1896,9646
4552,7220,44
4553,1957,2996
4554,3955,7918
4555,1462,5196
4556,8124,6707
4557,4689,6088
4558,9249,5070
4559,9706,8517
4560,5752,9027
4561,4823,1389
4562,7035,8410
4563,9120,8755
4564,2339,9241
4565,3524,239
4566,3295,6612
4567,9071,5714
4568,7515,3801
4569,6978,4266
4570,617,7837
4571,4645,3449
4572,8396,9922
4573,5715,3685
4574,5738,9312
4575,8149,451
4576,7920,8277
4577,4409,5589
4578,7163,9859
4579,3650,5351
4580,672,5906
4581,4022,4484
4582,1229,2381
4583,4381,4357
4584,3903,8256
4585,2048,2220
4586,3971,4323
4587,4500,4705
4588,6457,4412
4589,1394,6682
4590,9183,4249
4591,9280,6074
4592,5804,8324
4593,5764,6209
4594,1744,1144
4595,6682,4519
4596,7331,8469
4597,1429,9948
4598,3943,6105
4599,3520,5591
4600,8962,3923
4601,4540,1626
4602,8018,6939
4603,1519,3368
4604,6429,6965
4605,2102,8806
4606,1676,6727
4607,6902,3908
4608,4195,1894
4609,9615,4627
4610,1862,7306
4611,7944,5861
4612,5115,8172
4613,3442,4708
4614,338,107
4615,1757,5347
4616,1476,8579
4617,9052,5168
4618,6130,9109
4619,609,9757
4620,3456,3660
4621,135,7356
4622,8213,2140
4623,2478,5235
4624,1754,6062
4625,3316,6359
4626,4679,8641
4627,6372,2262
4628,5949,7016
4629,2527,2283
4630,2842,9694
4631,6893,5590
4632,607,8309
4633,5255,8052
4634,3967,3675
4635,9556,2718
4636,1407,5714
4637,6511,4178
4638,2269,4075
4639,6070,4254
4640,2487,8837
4641,3410,4551
4642,3222,5719
4643,9818,9602
4644,5297,9664
4645,7697,2616
4646,6909,9322
4647,7101,5032
4648,9837,9253
4649,9749,532
4650,9815,9306
4651,7368,5236
4652,2784,9002
4653,6623,9926
4654,9455,7533
4655,218,2160
4656,7430,1737
4657,8550,7764
4658,117,8352
4659,3848,9691
4660,2310,2018
4661,4262,3741
4662,6474,9985
4663,7506,3726
4664,4212,1784
4665,2498,4010
4666,617,2129
4667,3280,203
4668,2640,1141
4669,2001,6852
4670,8841,9967
4671,9004,1658
4672,8128,2122
4673,6971,1364
4674,4004,2148
4675,3167,4960
4676,7322,3858
4677,8638,9342
4678,9007,1336
4679,8806,7419
4680,6710,6977
4681,3016,4829
4682,8202,5261
4683,3902,4373
4684,5958,8523
4685,4204,8137
4686,9505,2905
4687,8833,8153
4688,824,1505
4689,4304,9204
4690,4018,1794
4691,2128,9102
4692,6956,6206
4693,8450,3071
4694,921,9827
4695,4770,3072
4696,2869,714
4697,8504,5543
4698,4902,1052
4699,4889,2300
4700,6824,3914
4701,7854,5651
4702,696,3186
4703,6250,4294
4704,3938,9335
4705,6831,220
4706,4986,8093
4707,1280,6708
4708,1665,6550
4709,8475,3538
4710,8567,9146
4711,3715,3231
4712,3314,9063
4713,1878,4709
4714,621,3976
4715,527,5384
4716,9433,6954
4717,733,8651
4718,1347,9079
4719,3044,19
4720,4313,7979
4721,6225,3659
4722,7313,3612
4723,6627,6265
4724,206,1970
4725,7033,3991
4726,7505,3182
4727,202,6599
4728,7313,9155
4729,4567,5765
4730,7111,4296
4731,8532,9819
4732,6889,3860
4733,6586,7074
4734,2326,6528
4735,7079,5488
4736,6672,1633
4737,2786,5773
4738,6039,3927
4739,4016,8426
4740,1188,558
4741,3959,7018
4742,8573,9228
4743,4437,6547
4744,300,1960
4745,8471,993
4746,3344,2564
4747,6201,352
4748,7602,5453
4749,2437,2501
4750,1617,9486
4751,9373,9103
4752,2413,2672
4753,4646,5535
4754,7610,4554
4755,5539,2741
4756,1953,477
4757,3240,5304
4758,8506,1898
4759,4290,4915
4760,3866,9795
4761,2852,1375
4762,7870,6031
4763,5726,5719
4764,4789,9723
4765,6341,34
4766,8899,5798
4767,5195,5398
4768,1475,667
4769,2484,4516
4770,8612,1521
4771,2214,1320
4772,3126,556
4773,6451,4734
4774,8808,5833
4775,289,2989
4776,7519,8140
4777,6300,5657
4778,9309,8314
4779,4931,7397
4780,9950,509
4781,8504,3916
4782,8997,7414
4783,1456,4712
4784,6213,3001
4785,8070,3666
4786,3382,5422
4787,6797,2273
4788,5242,5028
4789,7592,6879
4790,918,930
4791,3818,9744
4792,1452,595
4793,8140,1466
4794,9758,4743
4795,7836,2997
4796,6515,4471
4797,2326,8347
4798,9398,9319
4799,9035,4657
4800,7184,1817
4801,17,161
4802,4977,3554
4803,7092,2912
4804,7976,1277
4805,9046,3216
4806,6098,6000
4807,9981,1185
4808,5669,6077
4809,2003,7035
4810,8435,2658
4811,2359,3921
4812,3855,3707
4813,7132,1059
4814,6441,4206
4815,9867,2029
4816,114,4520
4817,1447,1420
4818,6269,7719
4819,629,4964
4820,7984,4839
4821,594,4247
4822,6490,8633
4823,6657,3466
4824,6568,6054
4825,501,6826
4826,3231,2386
4827,4771,4728
4828,6266,154
4829,2610,1485
4830,4283,6103
4831,9558,4366
4832,5218,729
4833,1791,8030
4834,6819,9291
4835,4832,1282
4836,1564,573
4837,59,376
4838,6340,2919
4839,1132,988
4840,5814,861
4841,9298,582
4842,5783,465
4843,3562,3603
4844,2387,1931
4845,5599,6535
4846,4187,4241
4847,8931,643
4848,9007,231
4849,1917,5176
4850,4653,3131
4851,2139,8768
4852,5658,2385
4853,3532,4100
4854,9021,4245
4855,1110,1987
4856,6021,8161
4857,9791,903
4858,8174,3161
4859,2276,2767
4860,7412,6648
4861,1467,3714
4862,9601,3501
4863,9082,6203
4864,2035,4834
4865,4172,7255
4866,8466,8337
4867,9857,2783
4868,4643,1081
4869,6927,4482
4870,5615,572
4871,9979,1944
4872,7227,3764
4873,1640,1912
4874,6477,8357
4875,2312,9696
4876,7992,2240
4877,5157,4594
4878,4149,3501
4879,1420,3034
4880,7848,5689
4881,9733,1030
4882,142,1413
4883,8876,9836
4884,2727,3372
4885,8601,4196
4886,8427,6502
4887,6649,2398
4888,5911,3728
4889,6429,5878
4890,2640,6430
4891,4914,9460
4892,1084,5004
4893,5080,1062
4894,6943,809
4895,9464,1194
4896,280,5767
4897,2393,9609
4898,4021,2625
4899,836,5163
4900,6747,9330
4901,6838,5653
4902,9600,8668
4903,3861,79
4904,1357,5867
4905,998,864
4906,6256,1184
4907,6087,4222
4908,8241,5158
4909,9764,2543
4910,851,52
4911,9254,6685
4912,8532,3614
4913,544,7883
4914,6060,3416
4915,7337,4666
4916,1545,5801
4917,4798,5089
4918,4074,5117
4919,8508,6986
4920,3979,8582
4921,5350,1384
4922,6035,7947
4923,1176,3595
4924,9868,8887
4925,8294,5611
4926,9763,1818
4927,2600,7970
4928,2561,7098
4929,4629,7586
4930,2258,2453
4931,9332,693
4932,2040,9169
4933,9059,8787
4934,7010,1146
4935,388,5011
4936,629,4919
4937,2698,4497
4938,9355,2763
4939,2119,1108
4940,3965,4358
4941,4162,7286
4942,1288,4550
4943,7320,2400
4944,2244,6204
4945,5812,8377
4946,85,5601
4947,8349,3290
4948,1253,6860
4949,8513,6307
4950,4610,3728
4951,1629,9941
4952,7433,2452
4953,9867,5888
4954,754,9112
4955,4089,900
4956,7152,3154
4957,9250,8797
4958,1308,4255
4959,598,780
4960,9397,2872
4961,1348,8156
4962,5881,9370
4963,9568,9310
4964,2556,6012
4965,1909,1037
4966,3399,7520
4967,1792,682
4968,804,56
4969,1354,5753
4970,8148,2080
4971,8259,141
4972,6483,4555
4973,8722,1288
4974,5221,5820
4975,8440,3907
4976,8271,984
4977,3425,5108
4978,2304,2773
4979,7024,6823
4980,84,6681
4981,8933,7007
4982,3090,1992
4983,9141,4961
4984,4054,2017
4985,8902,1469
4986,7075,4621
4987,387,2328
4988,8752,7387
4989,6731,2966
4990,1216,3657
4991,3271,6651
4992,574,9391
4993,939,9462
4994,8605,11
4995,4236,3561
4996,2843,5110
4997,4474,5688
4998,2301,9288
4999,1007,8938
5000,1728,5788
